UVM_Tests/test.vcd
$date
   Tue Nov  1 11:45:21 2022
$end
$version
  2021.2
$end
$timescale
  1ps
$end
$scope module accum_tb_top $end
$var reg 1 ! clk $end
$var reg 1 " reset_n $end
$scope module accum_intf $end
$var wire 1 # clk $end
$var wire 1 $ reset_n $end
$var reg 32 % data [31:0] $end
$var reg 1 & enable $end
$var reg 1 ' clear $end
$var reg 32 ( accum [31:0] $end
$scope module DRV $end
$var wire 1 # clk $end
$var wire 1 $ reset_n $end
$upscope $end
$scope module RCV $end
$var wire 1 # clk $end
$var wire 1 $ reset_n $end
$upscope $end
$scope module dr_cb $end
$var reg 32 ) accum [31:0] $end
$var reg 1 * clear $end
$var reg 1 + enable $end
$var reg 32 , data [31:0] $end
$upscope $end
$scope module rc_cb $end
$var reg 32 - data [31:0] $end
$var reg 1 . enable $end
$var reg 1 / clear $end
$var reg 32 0 accum [31:0] $end
$upscope $end
$upscope $end
$scope module dut $end
$var wire 1 1 clk $end
$var wire 1 2 en_i $end
$var wire 1 3 clear_i $end
$var wire 32 4 data_i [31:0] $end
$var reg 32 5 result_o [31:0] $end
$var wire 32 6 in_data_sext [31:0] $end
$upscope $end
$upscope $end
$enddefinitions $end
#0
$dumpvars
0!
0"
0#
0$
bx %
x&
x'
bx (
bx )
1*
0+
b0 ,
bx -
x.
x/
bx 0
01
x2
x3
bx 4
bx 5
bx 6
$end
#5000
1!
1#
b0 %
0&
1'
11
02
13
b0 4
b0 6
#10000
0!
0#
b0 -
0.
1/
01
#15000
1!
1#
b0 (
11
b0 5
#20000
0!
0#
b0 0
01
#25000
1!
1#
b0 )
11
#30000
0!
0#
01
#35000
1!
1#
11
#40000
0!
0#
01
#45000
1!
1#
0'
0*
11
03
#50000
0!
1"
0#
1$
0/
01
#55000
1!
1#
11
#60000
0!
0#
01
#65000
1!
1#
11
#70000
0!
0#
01
#75000
1!
1#
11
#80000
0!
0#
01
#85000
1!
1#
11
#90000
0!
0#
01
#95000
1!
1#
11
#100000
0!
0#
01
#105000
1!
1#
b1011100001111 %
1&
1+
b1011100001111 ,
11
12
b1011100001111 4
b1011100001111 6
#110000
0!
0#
b1011100001111 -
1.
01
#115000
1!
1#
b1010011101000110 %
0&
b1011100001111 (
0+
b1010011101000110 ,
11
02
b1010011101000110 4
b1011100001111 5
b1010011101000110 6
#120000
0!
0#
b1010011101000110 -
0.
b1011100001111 0
01
#125000
1!
1#
b1100011011111001 %
b1011100001111 )
b1100011011111001 ,
11
b1100011011111001 4
b1100011011111001 6
#130000
0!
0#
b1100011011111001 -
01
#135000
1!
1#
b111010000100010 %
b111010000100010 ,
11
b111010000100010 4
b111010000100010 6
#140000
0!
0#
b111010000100010 -
01
#145000
1!
1#
b1011011010010001 %
1&
1+
b1011011010010001 ,
11
12
b1011011010010001 4
b1011011010010001 6
#150000
0!
0#
b1011011010010001 -
1.
01
#155000
1!
1#
b1000010110000100 %
0&
b1100110110100000 (
0+
b1000010110000100 ,
11
02
b1000010110000100 4
b1100110110100000 5
b1000010110000100 6
#160000
0!
0#
b1000010110000100 -
0.
b1100110110100000 0
01
#165000
1!
1#
b1110010011101000 %
b1100110110100000 )
b1110010011101000 ,
11
b1110010011101000 4
b1110010011101000 6
#170000
0!
0#
b1110010011101000 -
01
#175000
1!
1#
b1101010010000001 %
b1101010010000001 ,
11
b1101010010000001 4
b1101010010000001 6
#180000
0!
0#
b1101010010000001 -
01
#185000
1!
1#
b101001010011001 %
b101001010011001 ,
11
b101001010011001 4
b101001010011001 6
#190000
0!
0#
b101001010011001 -
01
#195000
1!
1#
b110001000001101 %
1&
1+
b110001000001101 ,
11
12
b110001000001101 4
b110001000001101 6
#200000
0!
0#
b110001000001101 -
1.
01
#205000
1!
1#
b1111111010101100 %
0&
b10010111110101101 (
0+
b1111111010101100 ,
11
02
b1111111010101100 4
b10010111110101101 5
b1111111010101100 6
#210000
0!
0#
b1111111010101100 -
0.
b10010111110101101 0
01
#215000
1!
1#
b10110100100011 %
1&
b10010111110101101 )
1+
b10110100100011 ,
11
12
b10110100100011 4
b10110100100011 6
#220000
0!
0#
b10110100100011 -
1.
01
#225000
1!
1#
b1110111101100010 %
b10101110011010000 (
b1110111101100010 ,
11
b1110111101100010 4
b10101110011010000 5
b1110111101100010 6
#230000
0!
0#
b1110111101100010 -
b10101110011010000 0
01
#235000
1!
1#
b11101001111111 %
0&
b100100110000110010 (
b10101110011010000 )
0+
b11101001111111 ,
11
02
b11101001111111 4
b100100110000110010 5
b11101001111111 6
#240000
0!
0#
b11101001111111 -
0.
b100100110000110010 0
01
#245000
1!
1#
b1101111101011 %
1&
b100100110000110010 )
1+
b1101111101011 ,
11
12
b1101111101011 4
b1101111101011 6
#250000
0!
0#
b1101111101011 -
1.
01
#255000
1!
1#
b1000011110010011 %
0&
b100110100000011101 (
0+
b1000011110010011 ,
11
02
b1000011110010011 4
b100110100000011101 5
b1000011110010011 6
#260000
0!
0#
b1000011110010011 -
0.
b100110100000011101 0
01
#265000
1!
1#
b1000100010011001 %
b100110100000011101 )
b1000100010011001 ,
11
b1000100010011001 4
b1000100010011001 6
#270000
0!
0#
b1000100010011001 -
01
#275000
1!
1#
b1010000001111 %
b1010000001111 ,
11
b1010000001111 4
b1010000001111 6
#280000
0!
0#
b1010000001111 -
01
#285000
1!
1#
b11001111111110 %
b11001111111110 ,
11
b11001111111110 4
b11001111111110 6
#290000
0!
0#
b11001111111110 -
01
#295000
1!
1#
b1110000000010001 %
b1110000000010001 ,
11
b1110000000010001 4
b1110000000010001 6
#300000
0!
0#
b1110000000010001 -
01
#305000
1!
1#
b1110111001011 %
b1110111001011 ,
11
b1110111001011 4
b1110111001011 6
#310000
0!
0#
b1110111001011 -
01
#315000
1!
1#
b1110111010100010 %
b1110111010100010 ,
11
b1110111010100010 4
b1110111010100010 6
#320000
0!
0#
b1110111010100010 -
01
#325000
1!
1#
b100110000001111 %
b100110000001111 ,
11
b100110000001111 4
b100110000001111 6
#330000
0!
0#
b100110000001111 -
01
#335000
1!
1#
b11100111000000 %
b11100111000000 ,
11
b11100111000000 4
b11100111000000 6
#340000
0!
0#
b11100111000000 -
01
#345000
1!
1#
b1011011011100011 %
1&
1+
b1011011011100011 ,
11
12
b1011011011100011 4
b1011011011100011 6
#350000
0!
0#
b1011011011100011 -
1.
01
#355000
1!
1#
b1100010001010111 %
b110001111100000000 (
b1100010001010111 ,
11
b1100010001010111 4
b110001111100000000 5
b1100010001010111 6
#360000
0!
0#
b1100010001010111 -
b110001111100000000 0
01
#365000
1!
1#
b110000101000110 %
0&
b111110001101010111 (
b110001111100000000 )
0+
b110000101000110 ,
11
02
b110000101000110 4
b111110001101010111 5
b110000101000110 6
#370000
0!
0#
b110000101000110 -
0.
b111110001101010111 0
01
#375000
1!
1#
b1000101110010111 %
1&
b111110001101010111 )
1+
b1000101110010111 ,
11
12
b1000101110010111 4
b1000101110010111 6
#380000
0!
0#
b1000101110010111 -
1.
01
#385000
1!
1#
b100101100101011 %
b1000110111011101110 (
b100101100101011 ,
11
b100101100101011 4
b1000110111011101110 5
b100101100101011 6
#390000
0!
0#
b100101100101011 -
b1000110111011101110 0
01
#395000
1!
1#
b1001100000010000 %
0&
b1001011101000011001 (
b1000110111011101110 )
0+
b1001100000010000 ,
11
02
b1001100000010000 4
b1001011101000011001 5
b1001100000010000 6
#400000
0!
0#
b1001100000010000 -
0.
b1001011101000011001 0
01
#405000
1!
1#
b111010010000011 %
1&
b1001011101000011001 )
1+
b111010010000011 ,
11
12
b111010010000011 4
b111010010000011 6
#410000
0!
0#
b111010010000011 -
1.
01
#415000
1!
1#
b1101111001000100 %
0&
b1010010111010011100 (
0+
b1101111001000100 ,
11
02
b1101111001000100 4
b1010010111010011100 5
b1101111001000100 6
#420000
0!
0#
b1101111001000100 -
0.
b1010010111010011100 0
01
#425000
1!
1#
b1101101010001101 %
b1010010111010011100 )
b1101101010001101 ,
11
b1101101010001101 4
b1101101010001101 6
#430000
0!
0#
b1101101010001101 -
01
#435000
1!
1#
b110101000000001 %
b110101000000001 ,
11
b110101000000001 4
b110101000000001 6
#440000
0!
0#
b110101000000001 -
01
#445000
1!
1#
b1000010111001101 %
b1000010111001101 ,
11
b1000010111001101 4
b1000010111001101 6
#450000
0!
0#
b1000010111001101 -
01
#455000
1!
1#
b10111101000001 %
1&
1+
b10111101000001 ,
11
12
b10111101000001 4
b10111101000001 6
#460000
0!
0#
b10111101000001 -
1.
01
#465000
1!
1#
b110101011011101 %
b1010101110111011101 (
b110101011011101 ,
11
b110101011011101 4
b1010101110111011101 5
b110101011011101 6
#470000
0!
0#
b110101011011101 -
b1010101110111011101 0
01
#475000
1!
1#
b11011011111111 %
b1011100100010111010 (
b1010101110111011101 )
b11011011111111 ,
11
b11011011111111 4
b1011100100010111010 5
b11011011111111 6
#480000
0!
0#
b11011011111111 -
b1011100100010111010 0
01
#485000
1!
1#
b1001001101011000 %
0&
b1011111111110111001 (
b1011100100010111010 )
0+
b1001001101011000 ,
11
02
b1001001101011000 4
b1011111111110111001 5
b1001001101011000 6
#490000
0!
0#
b1001001101011000 -
0.
b1011111111110111001 0
01
#495000
1!
1#
b1000000100011010 %
1&
b1011111111110111001 )
1+
b1000000100011010 ,
11
12
b1000000100011010 4
b1000000100011010 6
#500000
0!
0#
b1000000100011010 -
1.
01
#505000
1!
1#
b1111110001000010 %
0&
b1101000000011010011 (
0+
b1111110001000010 ,
11
02
b1111110001000010 4
b1101000000011010011 5
b1111110001000010 6
#510000
0!
0#
b1111110001000010 -
0.
b1101000000011010011 0
01
#515000
1!
1#
b11111010111 %
b1101000000011010011 )
b11111010111 ,
11
b11111010111 4
b11111010111 6
#520000
0!
0#
b11111010111 -
01
#525000
1!
1#
b1010001111101000 %
b1010001111101000 ,
11
b1010001111101000 4
b1010001111101000 6
#530000
0!
0#
b1010001111101000 -
01
#535000
1!
1#
b1100111000011010 %
b1100111000011010 ,
11
b1100111000011010 4
b1100111000011010 6
#540000
0!
0#
b1100111000011010 -
01
#545000
1!
1#
b1000101011101011 %
b1000101011101011 ,
11
b1000101011101011 4
b1000101011101011 6
#550000
0!
0#
b1000101011101011 -
01
#555000
1!
1#
b1101010111101001 %
b1101010111101001 ,
11
b1101010111101001 4
b1101010111101001 6
#560000
0!
0#
b1101010111101001 -
01
#565000
1!
1#
b1010111101111111 %
b1010111101111111 ,
11
b1010111101111111 4
b1010111101111111 6
#570000
0!
0#
b1010111101111111 -
01
#575000
1!
1#
b1100001100000 %
1&
1+
b1100001100000 ,
11
12
b1100001100000 4
b1100001100000 6
#580000
0!
0#
b1100001100000 -
1.
01
#585000
1!
1#
b1010110011101 %
0&
b1101001100100110011 (
0+
b1010110011101 ,
11
02
b1010110011101 4
b1101001100100110011 5
b1010110011101 6
#590000
0!
0#
b1010110011101 -
0.
b1101001100100110011 0
01
#595000
1!
1#
b1010000000010101 %
b1101001100100110011 )
b1010000000010101 ,
11
b1010000000010101 4
b1010000000010101 6
#600000
0!
0#
b1010000000010101 -
01
#605000
1!
1#
b1011101100011101 %
1&
1+
b1011101100011101 ,
11
12
b1011101100011101 4
b1011101100011101 6
#610000
0!
0#
b1011101100011101 -
1.
01
#615000
1!
1#
b110010010000100 %
0&
b1110101010001010000 (
0+
b110010010000100 ,
11
02
b110010010000100 4
b1110101010001010000 5
b110010010000100 6
#620000
0!
0#
b110010010000100 -
0.
b1110101010001010000 0
01
#625000
1!
1#
b1001110101010110 %
b1110101010001010000 )
b1001110101010110 ,
11
b1001110101010110 4
b1001110101010110 6
#630000
0!
0#
b1001110101010110 -
01
#635000
1!
1#
b110011101100000 %
b110011101100000 ,
11
b110011101100000 4
b110011101100000 6
#640000
0!
0#
b110011101100000 -
01
#645000
1!
1#
b1100001011101110 %
b1100001011101110 ,
11
b1100001011101110 4
b1100001011101110 6
#650000
0!
0#
b1100001011101110 -
01
#655000
1!
1#
b1010110111011011 %
b1010110111011011 ,
11
b1010110111011011 4
b1010110111011011 6
#660000
0!
0#
b1010110111011011 -
01
#665000
1!
1#
b10011100111100 %
1&
1+
b10011100111100 ,
11
12
b10011100111100 4
b10011100111100 6
#670000
0!
0#
b10011100111100 -
1.
01
#675000
1!
1#
b11000111001000 %
0&
b1110111101110001100 (
0+
b11000111001000 ,
11
02
b11000111001000 4
b1110111101110001100 5
b11000111001000 6
#680000
0!
0#
b11000111001000 -
0.
b1110111101110001100 0
01
#685000
1!
1#
b1100011110110001 %
b1110111101110001100 )
b1100011110110001 ,
11
b1100011110110001 4
b1100011110110001 6
#690000
0!
0#
b1100011110110001 -
01
#695000
1!
1#
b1111001000011011 %
b1111001000011011 ,
11
b1111001000011011 4
b1111001000011011 6
#700000
0!
0#
b1111001000011011 -
01
#705000
1!
1#
b1010111000001111 %
1&
1+
b1010111000001111 ,
11
12
b1010111000001111 4
b1010111000001111 6
#710000
0!
0#
b1010111000001111 -
1.
01
#715000
1!
1#
b1111010000100100 %
0&
b10000010100110011011 (
0+
b1111010000100100 ,
11
02
b1111010000100100 4
b10000010100110011011 5
b1111010000100100 6
#720000
0!
0#
b1111010000100100 -
0.
b10000010100110011011 0
01
#725000
1!
1#
b1101000010101110 %
1&
b10000010100110011011 )
1+
b1101000010101110 ,
11
12
b1101000010101110 4
b1101000010101110 6
#730000
0!
0#
b1101000010101110 -
1.
01
#735000
1!
1#
b11100110101000 %
b10001111101001001001 (
b11100110101000 ,
11
b11100110101000 4
b10001111101001001001 5
b11100110101000 6
#740000
0!
0#
b11100110101000 -
b10001111101001001001 0
01
#745000
1!
1#
b11001100100101 %
0&
b10010011001111110001 (
b10001111101001001001 )
0+
b11001100100101 ,
11
02
b11001100100101 4
b10010011001111110001 5
b11001100100101 6
#750000
0!
0#
b11001100100101 -
0.
b10010011001111110001 0
01
#755000
1!
1#
b1011100010001101 %
1&
b10010011001111110001 )
1+
b1011100010001101 ,
11
12
b1011100010001101 4
b1011100010001101 6
#760000
0!
0#
b1011100010001101 -
1.
01
#765000
1!
1#
b1101001111000011 %
0&
b10011110110001111110 (
0+
b1101001111000011 ,
11
02
b1101001111000011 4
b10011110110001111110 5
b1101001111000011 6
#770000
0!
0#
b1101001111000011 -
0.
b10011110110001111110 0
01
#775000
1!
1#
b111110000010110 %
b10011110110001111110 )
b111110000010110 ,
11
b111110000010110 4
b111110000010110 6
#780000
0!
0#
b111110000010110 -
01
#785000
1!
1#
b1011010000000011 %
1&
1+
b1011010000000011 ,
11
12
b1011010000000011 4
b1011010000000011 6
#790000
0!
0#
b1011010000000011 -
1.
01
#795000
1!
1#
b111111000100110 %
0&
b10101010000010000001 (
0+
b111111000100110 ,
11
02
b111111000100110 4
b10101010000010000001 5
b111111000100110 6
#800000
0!
0#
b111111000100110 -
0.
b10101010000010000001 0
01
#805000
1!
1#
b1101010011000001 %
b10101010000010000001 )
b1101010011000001 ,
11
b1101010011000001 4
b1101010011000001 6
#810000
0!
0#
b1101010011000001 -
01
#815000
1!
1#
b1011101010100001 %
b1011101010100001 ,
11
b1011101010100001 4
b1011101010100001 6
#820000
0!
0#
b1011101010100001 -
01
#825000
1!
1#
b11011000101101 %
b11011000101101 ,
11
b11011000101101 4
b11011000101101 6
#830000
0!
0#
b11011000101101 -
01
#835000
1!
1#
b11110011010001 %
b11110011010001 ,
11
b11110011010001 4
b11110011010001 6
#840000
0!
0#
b11110011010001 -
01
#845000
1!
1#
b1101010111010001 %
1&
1+
b1101010111010001 ,
11
12
b1101010111010001 4
b1101010111010001 6
#850000
0!
0#
b1101010111010001 -
1.
01
#855000
1!
1#
b1111110101010001 %
0&
b10110111011001010010 (
0+
b1111110101010001 ,
11
02
b1111110101010001 4
b10110111011001010010 5
b1111110101010001 6
#860000
0!
0#
b1111110101010001 -
0.
b10110111011001010010 0
01
#865000
1!
1#
b1011010000111010 %
b10110111011001010010 )
b1011010000111010 ,
11
b1011010000111010 4
b1011010000111010 6
#870000
0!
0#
b1011010000111010 -
01
#875000
1!
1#
b1111101101111010 %
b1111101101111010 ,
11
b1111101101111010 4
b1111101101111010 6
#880000
0!
0#
b1111101101111010 -
01
#885000
1!
1#
b1101001100011011 %
b1101001100011011 ,
11
b1101001100011011 4
b1101001100011011 6
#890000
0!
0#
b1101001100011011 -
01
#895000
1!
1#
b11101100101101 %
b11101100101101 ,
11
b11101100101101 4
b11101100101101 6
#900000
0!
0#
b11101100101101 -
01
#905000
1!
1#
b11000110010011 %
b11000110010011 ,
11
b11000110010011 4
b11000110010011 6
#910000
0!
0#
b11000110010011 -
01
#915000
1!
1#
b1011101000111101 %
b1011101000111101 ,
11
b1011101000111101 4
b1011101000111101 6
#920000
0!
0#
b1011101000111101 -
01
#925000
1!
1#
b1100111101011101 %
b1100111101011101 ,
11
b1100111101011101 4
b1100111101011101 6
#930000
0!
0#
b1100111101011101 -
01
#935000
1!
1#
b111011111110001 %
1&
1+
b111011111110001 ,
11
12
b111011111110001 4
b111011111110001 6
#940000
0!
0#
b111011111110001 -
1.
01
#945000
1!
1#
b1010101111100000 %
0&
b10111110111001000011 (
0+
b1010101111100000 ,
11
02
b1010101111100000 4
b10111110111001000011 5
b1010101111100000 6
#950000
0!
0#
b1010101111100000 -
0.
b10111110111001000011 0
01
#955000
1!
1#
b111010100110000 %
b10111110111001000011 )
b111010100110000 ,
11
b111010100110000 4
b111010100110000 6
#960000
0!
0#
b111010100110000 -
01
#965000
1!
1#
b1100100011000000 %
b1100100011000000 ,
11
b1100100011000000 4
b1100100011000000 6
#970000
0!
0#
b1100100011000000 -
01
#975000
1!
1#
b1011000011000101 %
1&
1+
b1011000011000101 ,
11
12
b1011000011000101 4
b1011000011000101 6
#980000
0!
0#
b1011000011000101 -
1.
01
#985000
1!
1#
b10010101011011 %
b11001001111100001000 (
b10010101011011 ,
11
b10010101011011 4
b11001001111100001000 5
b10010101011011 6
#990000
0!
0#
b10010101011011 -
b11001001111100001000 0
01
#995000
1!
1#
b10101100000001 %
b11001100010001100011 (
b11001001111100001000 )
b10101100000001 ,
11
b10101100000001 4
b11001100010001100011 5
b10101100000001 6
#1000000
0!
0#
b10101100000001 -
b11001100010001100011 0
01
#1005000
1!
1#
b1100000100110110 %
0&
b11001110111101100100 (
b11001100010001100011 )
0+
b1100000100110110 ,
11
02
b1100000100110110 4
b11001110111101100100 5
b1100000100110110 6
#1010000
0!
0#
b1100000100110110 -
0.
b11001110111101100100 0
01
#1015000
1!
1#
b1110101011100110 %
b11001110111101100100 )
b1110101011100110 ,
11
b1110101011100110 4
b1110101011100110 6
#1020000
0!
0#
b1110101011100110 -
01
#1025000
1!
1#
b1010000011000101 %
b1010000011000101 ,
11
b1010000011000101 4
b1010000011000101 6
#1030000
0!
0#
b1010000011000101 -
01
#1035000
1!
1#
b1110010011110001 %
b1110010011110001 ,
11
b1110010011110001 4
b1110010011110001 6
#1040000
0!
0#
b1110010011110001 -
01
#1045000
1!
1#
b1011101010101011 %
1&
1+
b1011101010101011 ,
11
12
b1011101010101011 4
b1011101010101011 6
#1050000
0!
0#
b1011101010101011 -
1.
01
#1055000
1!
1#
b10000111011100 %
b11011010101000001111 (
b10000111011100 ,
11
b10000111011100 4
b11011010101000001111 5
b10000111011100 6
#1060000
0!
0#
b10000111011100 -
b11011010101000001111 0
01
#1065000
1!
1#
b1011001010011 %
0&
b11011100101111101011 (
b11011010101000001111 )
0+
b1011001010011 ,
11
02
b1011001010011 4
b11011100101111101011 5
b1011001010011 6
#1070000
0!
0#
b1011001010011 -
0.
b11011100101111101011 0
01
#1075000
1!
1#
b1001110000100000 %
b11011100101111101011 )
b1001110000100000 ,
11
b1001110000100000 4
b1001110000100000 6
#1080000
0!
0#
b1001110000100000 -
01
#1085000
1!
1#
b1010111001010111 %
b1010111001010111 ,
11
b1010111001010111 4
b1010111001010111 6
#1090000
0!
0#
b1010111001010111 -
01
#1095000
1!
1#
b101010100000011 %
b101010100000011 ,
11
b101010100000011 4
b101010100000011 6
#1100000
0!
0#
b101010100000011 -
01
#1105000
1!
1#
b1000101011110001 %
b1000101011110001 ,
11
b1000101011110001 4
b1000101011110001 6
#1110000
0!
0#
b1000101011110001 -
01
#1115000
1!
1#
b100111101011101 %
b100111101011101 ,
11
b100111101011101 4
b100111101011101 6
#1120000
0!
0#
b100111101011101 -
01
#1125000
1!
1#
b1010010000000011 %
b1010010000000011 ,
11
b1010010000000011 4
b1010010000000011 6
#1130000
0!
0#
b1010010000000011 -
01
#1135000
1!
1#
b1000101000111001 %
b1000101000111001 ,
11
b1000101000111001 4
b1000101000111001 6
#1140000
0!
0#
b1000101000111001 -
01
#1145000
1!
1#
b1111101110100100 %
b1111101110100100 ,
11
b1111101110100100 4
b1111101110100100 6
#1150000
0!
0#
b1111101110100100 -
01
#1155000
1!
1#
b1111111110000100 %
b1111111110000100 ,
11
b1111111110000100 4
b1111111110000100 6
#1160000
0!
0#
b1111111110000100 -
01
#1165000
1!
1#
b1001011011100101 %
1&
1+
b1001011011100101 ,
11
12
b1001011011100101 4
b1001011011100101 6
#1170000
0!
0#
b1001011011100101 -
1.
01
#1175000
1!
1#
b1011100001111110 %
0&
b11100110001011010000 (
0+
b1011100001111110 ,
11
02
b1011100001111110 4
b11100110001011010000 5
b1011100001111110 6
#1180000
0!
0#
b1011100001111110 -
0.
b11100110001011010000 0
01
#1185000
1!
1#
b110111101100011 %
b11100110001011010000 )
b110111101100011 ,
11
b110111101100011 4
b110111101100011 6
#1190000
0!
0#
b110111101100011 -
01
#1195000
1!
1#
b1011001011110001 %
b1011001011110001 ,
11
b1011001011110001 4
b1011001011110001 6
#1200000
0!
0#
b1011001011110001 -
01
#1205000
1!
1#
b1000011110101111 %
b1000011110101111 ,
11
b1000011110101111 4
b1000011110101111 6
#1210000
0!
0#
b1000011110101111 -
01
#1215000
1!
1#
b1110101011010001 %
b1110101011010001 ,
11
b1110101011010001 4
b1110101011010001 6
#1220000
0!
0#
b1110101011010001 -
01
#1225000
1!
1#
b1101101100111000 %
b1101101100111000 ,
11
b1101101100111000 4
b1101101100111000 6
#1230000
0!
0#
b1101101100111000 -
01
#1235000
1!
1#
b110000101001000 %
b110000101001000 ,
11
b110000101001000 4
b110000101001000 6
#1240000
0!
0#
b110000101001000 -
01
#1245000
1!
1#
b111010110000110 %
b111010110000110 ,
11
b111010110000110 4
b111010110000110 6
#1250000
0!
0#
b111010110000110 -
01
#1255000
1!
1#
b1100001010101 %
1&
1+
b1100001010101 ,
11
12
b1100001010101 4
b1100001010101 6
#1260000
0!
0#
b1100001010101 -
1.
01
#1265000
1!
1#
b100110001010010 %
0&
b11100111101100100101 (
0+
b100110001010010 ,
11
02
b100110001010010 4
b11100111101100100101 5
b100110001010010 6
#1270000
0!
0#
b100110001010010 -
0.
b11100111101100100101 0
01
#1275000
1!
1#
b111111011111 %
b11100111101100100101 )
b111111011111 ,
11
b111111011111 4
b111111011111 6
#1280000
0!
0#
b111111011111 -
01
#1285000
1!
1#
b110001010011001 %
b110001010011001 ,
11
b110001010011001 4
b110001010011001 6
#1290000
0!
0#
b110001010011001 -
01
#1295000
1!
1#
b100000111001110 %
b100000111001110 ,
11
b100000111001110 4
b100000111001110 6
#1300000
0!
0#
b100000111001110 -
01
#1305000
1!
1#
b1011010100111111 %
b1011010100111111 ,
11
b1011010100111111 4
b1011010100111111 6
#1310000
0!
0#
b1011010100111111 -
01
#1315000
1!
1#
b1011101001000011 %
1&
1+
b1011101001000011 ,
11
12
b1011101001000011 4
b1011101001000011 6
#1320000
0!
0#
b1011101001000011 -
1.
01
#1325000
1!
1#
b100110010101011 %
0&
b11110011010101101000 (
0+
b100110010101011 ,
11
02
b100110010101011 4
b11110011010101101000 5
b100110010101011 6
#1330000
0!
0#
b100110010101011 -
0.
b11110011010101101000 0
01
#1335000
1!
1#
b110111101001010 %
1&
b11110011010101101000 )
1+
b110111101001010 ,
11
12
b110111101001010 4
b110111101001010 6
#1340000
0!
0#
b110111101001010 -
1.
01
#1345000
1!
1#
b1111101110000 %
0&
b11111010010010110010 (
0+
b1111101110000 ,
11
02
b1111101110000 4
b11111010010010110010 5
b1111101110000 6
#1350000
0!
0#
b1111101110000 -
0.
b11111010010010110010 0
01
#1355000
1!
1#
b110001111001110 %
1&
b11111010010010110010 )
1+
b110001111001110 ,
11
12
b110001111001110 4
b110001111001110 6
#1360000
0!
0#
b110001111001110 -
1.
01
#1365000
1!
1#
b11011010100110 %
0&
b100000000100010000000 (
0+
b11011010100110 ,
11
02
b11011010100110 4
b100000000100010000000 5
b11011010100110 6
#1370000
0!
0#
b11011010100110 -
0.
b100000000100010000000 0
01
#1375000
1!
1#
b1001010011111101 %
b100000000100010000000 )
b1001010011111101 ,
11
b1001010011111101 4
b1001010011111101 6
#1380000
0!
0#
b1001010011111101 -
01
#1385000
1!
1#
b1000101010001110 %
b1000101010001110 ,
11
b1000101010001110 4
b1000101010001110 6
#1390000
0!
0#
b1000101010001110 -
01
#1395000
1!
1#
b100010100110 %
b100010100110 ,
11
b100010100110 4
b100010100110 6
#1400000
0!
0#
b100010100110 -
01
#1405000
1!
1#
b1110100000110 %
b1110100000110 ,
11
b1110100000110 4
b1110100000110 6
#1410000
0!
0#
b1110100000110 -
01
#1415000
1!
1#
b1011111110110110 %
b1011111110110110 ,
11
b1011111110110110 4
b1011111110110110 6
#1420000
0!
0#
b1011111110110110 -
01
#1425000
1!
1#
b1110110111101101 %
1&
1+
b1110110111101101 ,
11
12
b1110110111101101 4
b1110110111101101 6
#1430000
0!
0#
b1110110111101101 -
1.
01
#1435000
1!
1#
b1011001001011101 %
b100001111011001101101 (
b1011001001011101 ,
11
b1011001001011101 4
b100001111011001101101 5
b1011001001011101 6
#1440000
0!
0#
b1011001001011101 -
b100001111011001101101 0
01
#1445000
1!
1#
b1101001010 %
0&
b100011010100011001010 (
b100001111011001101101 )
0+
b1101001010 ,
11
02
b1101001010 4
b100011010100011001010 5
b1101001010 6
#1450000
0!
0#
b1101001010 -
0.
b100011010100011001010 0
01
#1455000
1!
1#
b1110001110000010 %
b100011010100011001010 )
b1110001110000010 ,
11
b1110001110000010 4
b1110001110000010 6
#1460000
0!
0#
b1110001110000010 -
01
#1465000
1!
1#
b101010100100101 %
b101010100100101 ,
11
b101010100100101 4
b101010100100101 6
#1470000
0!
0#
b101010100100101 -
01
#1475000
1!
1#
b101010100110101 %
1&
1+
b101010100110101 ,
11
12
b101010100110101 4
b101010100110101 6
#1480000
0!
0#
b101010100110101 -
1.
01
#1485000
1!
1#
b1110010110101101 %
b100011111110111111111 (
b1110010110101101 ,
11
b1110010110101101 4
b100011111110111111111 5
b1110010110101101 6
#1490000
0!
0#
b1110010110101101 -
b100011111110111111111 0
01
#1495000
1!
1#
b11010000101 %
b100101110001110101100 (
b100011111110111111111 )
b11010000101 ,
11
b11010000101 4
b100101110001110101100 5
b11010000101 6
#1500000
0!
0#
b11010000101 -
b100101110001110101100 0
01
#1505000
1!
1#
b1011100010000101 %
b100101110101000110001 (
b100101110001110101100 )
b1011100010000101 ,
11
b1011100010000101 4
b100101110101000110001 5
b1011100010000101 6
#1510000
0!
0#
b1011100010000101 -
b100101110101000110001 0
01
#1515000
1!
1#
b1111011000011001 %
0&
b100111010001010110110 (
b100101110101000110001 )
0+
b1111011000011001 ,
11
02
b1111011000011001 4
b100111010001010110110 5
b1111011000011001 6
#1520000
0!
0#
b1111011000011001 -
0.
b100111010001010110110 0
01
#1525000
1!
1#
b1100100100011011 %
b100111010001010110110 )
b1100100100011011 ,
11
b1100100100011011 4
b1100100100011011 6
#1530000
0!
0#
b1100100100011011 -
01
#1535000
1!
1#
b10100101111111 %
b10100101111111 ,
11
b10100101111111 4
b10100101111111 6
#1540000
0!
0#
b10100101111111 -
01
#1545000
1!
1#
b1011100100011 %
b1011100100011 ,
11
b1011100100011 4
b1011100100011 6
#1550000
0!
0#
b1011100100011 -
01
#1555000
1!
1#
b1001011000100001 %
b1001011000100001 ,
11
b1001011000100001 4
b1001011000100001 6
#1560000
0!
0#
b1001011000100001 -
01
#1565000
1!
1#
b1010100010100111 %
b1010100010100111 ,
11
b1010100010100111 4
b1010100010100111 6
#1570000
0!
0#
b1010100010100111 -
01
#1575000
1!
1#
b100100110001000 %
1&
1+
b100100110001000 ,
11
12
b100100110001000 4
b100100110001000 6
#1580000
0!
0#
b100100110001000 -
1.
01
#1585000
1!
1#
b111010110100000 %
0&
b100111110110000111110 (
0+
b111010110100000 ,
11
02
b111010110100000 4
b100111110110000111110 5
b111010110100000 6
#1590000
0!
0#
b111010110100000 -
0.
b100111110110000111110 0
01
#1595000
1!
1#
b11100001000111 %
1&
b100111110110000111110 )
1+
b11100001000111 ,
11
12
b11100001000111 4
b11100001000111 6
#1600000
0!
0#
b11100001000111 -
1.
01
#1605000
1!
1#
b1000010101001111 %
0&
b101000010010010000101 (
0+
b1000010101001111 ,
11
02
b1000010101001111 4
b101000010010010000101 5
b1000010101001111 6
#1610000
0!
0#
b1000010101001111 -
0.
b101000010010010000101 0
01
#1615000
1!
1#
b110011110101110 %
b101000010010010000101 )
b110011110101110 ,
11
b110011110101110 4
b110011110101110 6
#1620000
0!
0#
b110011110101110 -
01
#1625000
1!
1#
b1101010101100001 %
b1101010101100001 ,
11
b1101010101100001 4
b1101010101100001 6
#1630000
0!
0#
b1101010101100001 -
01
#1635000
1!
1#
b1101001001111000 %
b1101001001111000 ,
11
b1101001001111000 4
b1101001001111000 6
#1640000
0!
0#
b1101001001111000 -
01
#1645000
1!
1#
b110010011110001 %
b110010011110001 ,
11
b110010011110001 4
b110010011110001 6
#1650000
0!
0#
b110010011110001 -
01
#1655000
1!
1#
b1000001111010010 %
b1000001111010010 ,
11
b1000001111010010 4
b1000001111010010 6
