UVM_Tests/test.vcd
$date
   Mon Oct 31 08:08:54 2022
$end
$version
  2021.2
$end
$timescale
  1ps
$end
$scope module accum_tb_top $end
$var reg 1 ! clk $end
$var reg 1 " reset_n $end
$scope module accum_intf $end
$var wire 1 # clk $end
$var wire 1 $ reset_n $end
$var reg 32 % data [31:0] $end
$var reg 1 & enable $end
$var reg 1 ' clear $end
$var reg 32 ( accum [31:0] $end
$scope module DRV $end
$var wire 1 # clk $end
$var wire 1 $ reset_n $end
$upscope $end
$scope module RCV $end
$var wire 1 # clk $end
$var wire 1 $ reset_n $end
$upscope $end
$scope module dr_cb $end
$var reg 32 ) accum [31:0] $end
$var reg 1 * clear $end
$var reg 1 + enable $end
$var reg 32 , data [31:0] $end
$upscope $end
$scope module rc_cb $end
$var reg 32 - data [31:0] $end
$var reg 1 . enable $end
$var reg 1 / clear $end
$var reg 32 0 accum [31:0] $end
$upscope $end
$upscope $end
$scope module dut $end
$var wire 1 1 clk $end
$var wire 1 2 en_i $end
$var wire 1 3 clear_i $end
$var wire 32 4 data_i [31:0] $end
$var reg 32 5 result_o [31:0] $end
$var wire 32 6 in_data_sext [31:0] $end
$upscope $end
$upscope $end
$enddefinitions $end
#0
$dumpvars
0!
0"
0#
0$
bx %
x&
x'
bx (
bx )
1*
0+
b0 ,
bx -
x.
x/
bx 0
01
x2
x3
bx 4
bx 5
bx 6
$end
#5000
1!
1#
b0 %
0&
1'
11
02
13
b0 4
b0 6
#10000
0!
0#
b0 -
0.
1/
01
#15000
1!
1#
b0 (
11
b0 5
#20000
0!
0#
b0 0
01
#25000
1!
1#
b0 )
11
#30000
0!
0#
01
#35000
1!
1#
11
#40000
0!
0#
01
#45000
1!
1#
0'
0*
11
03
#50000
0!
1"
0#
1$
0/
01
#55000
1!
1#
11
#60000
0!
0#
01
#65000
1!
1#
11
#70000
0!
0#
01
#75000
1!
1#
11
#80000
0!
0#
01
#85000
1!
1#
11
#90000
0!
0#
01
#95000
1!
1#
11
#100000
0!
0#
01
#105000
1!
1#
b100011011000100001000101110 %
1&
1+
b100011011000100001000101110 ,
11
12
b100011011000100001000101110 4
b100011011000100001000101110 6
#110000
0!
0#
b100011011000100001000101110 -
1.
01
#115000
1!
1#
b11101011011100001101111011111110 %
0&
b100011011000100001000101110 (
0+
b11101011011100001101111011111110 ,
11
02
b11101011011100001101111011111110 4
b100011011000100001000101110 5
b11101011011100001101111011111110 6
#120000
0!
0#
b11101011011100001101111011111110 -
0.
b100011011000100001000101110 0
01
#125000
1!
1#
b11111001011110100001100010110100 %
1&
b100011011000100001000101110 )
1+
b11111001011110100001100010110100 ,
11
12
b11111001011110100001100010110100 4
b11111001011110100001100010110100 6
#130000
0!
0#
b11111001011110100001100010110100 -
1.
01
#135000
1!
1#
b10101110100001111110111101001011 %
0&
b11111101111001100101101011100010 (
0+
b10101110100001111110111101001011 ,
11
02
b10101110100001111110111101001011 4
b11111101111001100101101011100010 5
b10101110100001111110111101001011 6
#140000
0!
0#
b10101110100001111110111101001011 -
0.
b11111101111001100101101011100010 0
01
#145000
1!
1#
b1010100110100110001011000001 %
1&
b11111101111001100101101011100010 )
1+
b1010100110100110001011000001 ,
11
12
b1010100110100110001011000001 4
b1010100110100110001011000001 6
#150000
0!
0#
b1010100110100110001011000001 -
1.
01
#155000
1!
1#
b10001101101100010111001100101010 %
0&
b1000100000001011110110100011 (
0+
b10001101101100010111001100101010 ,
11
02
b10001101101100010111001100101010 4
b1000100000001011110110100011 5
b10001101101100010111001100101010 6
#160000
0!
0#
b10001101101100010111001100101010 -
0.
b1000100000001011110110100011 0
01
#165000
1!
1#
b110111110011010010000010010111 %
b1000100000001011110110100011 )
b110111110011010010000010010111 ,
11
b110111110011010010000010010111 4
b110111110011010010000010010111 6
#170000
0!
0#
b110111110011010010000010010111 -
01
#175000
1!
1#
b11001000111011010110101010100100 %
1&
1+
b11001000111011010110101010100100 ,
11
12
b11001000111011010110101010100100 4
b11001000111011010110101010100100 6
#180000
0!
0#
b11001000111011010110101010100100 -
1.
01
#185000
1!
1#
b1000100100101000110100110 %
b11010001011011100010100001000111 (
b1000100100101000110100110 ,
11
b1000100100101000110100110 4
b11010001011011100010100001000111 5
b1000100100101000110100110 6
#190000
0!
0#
b1000100100101000110100110 -
b11010001011011100010100001000111 0
01
#195000
1!
1#
b11100000001110111101010110010011 %
b11010010100000000111100111101101 (
b11010001011011100010100001000111 )
b11100000001110111101010110010011 ,
11
b11100000001110111101010110010011 4
b11010010100000000111100111101101 5
b11100000001110111101010110010011 6
#200000
0!
0#
b11100000001110111101010110010011 -
b11010010100000000111100111101101 0
01
#205000
1!
1#
b10100110011010011111011000111000 %
0&
b10110010101111000100111110000000 (
b11010010100000000111100111101101 )
0+
b10100110011010011111011000111000 ,
11
02
b10100110011010011111011000111000 4
b10110010101111000100111110000000 5
b10100110011010011111011000111000 6
#210000
0!
0#
b10100110011010011111011000111000 -
0.
b10110010101111000100111110000000 0
01
#215000
1!
1#
b11010011100111001011010000001110 %
1&
b10110010101111000100111110000000 )
1+
b11010011100111001011010000001110 ,
11
12
b11010011100111001011010000001110 4
b11010011100111001011010000001110 6
#220000
0!
0#
b11010011100111001011010000001110 -
1.
01
#225000
1!
1#
b10100111110101000000111001100001 %
0&
b10000110010110010000001110001110 (
0+
b10100111110101000000111001100001 ,
11
02
b10100111110101000000111001100001 4
b10000110010110010000001110001110 5
b10100111110101000000111001100001 6
#230000
0!
0#
b10100111110101000000111001100001 -
0.
b10000110010110010000001110001110 0
01
#235000
1!
1#
b11100011000100000000010111011011 %
1&
b10000110010110010000001110001110 )
1+
b11100011000100000000010111011011 ,
11
12
b11100011000100000000010111011011 4
b11100011000100000000010111011011 6
#240000
0!
0#
b11100011000100000000010111011011 -
1.
01
#245000
1!
1#
b11000101010100001001101000100111 %
b1101001011010010000100101101001 (
b11000101010100001001101000100111 ,
11
b11000101010100001001101000100111 4
b1101001011010010000100101101001 5
b11000101010100001001101000100111 6
#250000
0!
0#
b11000101010100001001101000100111 -
b1101001011010010000100101101001 0
01
#255000
1!
1#
b11001110100101011100101101010011 %
b101110101110011010001110010000 (
b1101001011010010000100101101001 )
b11001110100101011100101101010011 ,
11
b11001110100101011100101101010011 4
b101110101110011010001110010000 5
b11001110100101011100101101010011 6
#260000
0!
0#
b11001110100101011100101101010011 -
b101110101110011010001110010000 0
01
#265000
1!
1#
b11111110110111111001100101010010 %
b11111101010011110110111011100011 (
b101110101110011010001110010000 )
b11111110110111111001100101010010 ,
11
b11111110110111111001100101010010 4
b11111101010011110110111011100011 5
b11111110110111111001100101010010 6
#270000
0!
0#
b11111110110111111001100101010010 -
b11111101010011110110111011100011 0
01
#275000
1!
1#
b11010110001011100000010000100101 %
b11111100001011110000100000110101 (
b11111101010011110110111011100011 )
b11010110001011100000010000100101 ,
11
b11010110001011100000010000100101 4
b11111100001011110000100000110101 5
b11010110001011100000010000100101 6
#280000
0!
0#
b11010110001011100000010000100101 -
b11111100001011110000100000110101 0
01
#285000
1!
1#
b10100100000010000110000001000 %
0&
b11010010010111010000110001011010 (
b11111100001011110000100000110101 )
0+
b10100100000010000110000001000 ,
11
02
b10100100000010000110000001000 4
b11010010010111010000110001011010 5
b10100100000010000110000001000 6
#290000
0!
0#
b10100100000010000110000001000 -
0.
b11010010010111010000110001011010 0
01
#295000
1!
1#
b10111001110110001011000010011010 %
1&
b11010010010111010000110001011010 )
1+
b10111001110110001011000010011010 ,
11
12
b10111001110110001011000010011010 4
b10111001110110001011000010011010 6
#300000
0!
0#
b10111001110110001011000010011010 -
1.
01
#305000
1!
1#
b110001101001111001000110001 %
b10001100001101011011110011110100 (
b110001101001111001000110001 ,
11
b110001101001111001000110001 4
b10001100001101011011110011110100 5
b110001101001111001000110001 6
#310000
0!
0#
b110001101001111001000110001 -
b10001100001101011011110011110100 0
01
#315000
1!
1#
b11111001100101011101000010000101 %
0&
b10010010011010101010111100100101 (
b10001100001101011011110011110100 )
0+
b11111001100101011101000010000101 ,
11
02
b11111001100101011101000010000101 4
b10010010011010101010111100100101 5
b11111001100101011101000010000101 6
#320000
0!
0#
b11111001100101011101000010000101 -
0.
b10010010011010101010111100100101 0
01
#325000
1!
1#
b11010011111110110100101111010001 %
1&
b10010010011010101010111100100101 )
1+
b11010011111110110100101111010001 ,
11
12
b11010011111110110100101111010001 4
b11010011111110110100101111010001 6
#330000
0!
0#
b11010011111110110100101111010001 -
1.
01
#335000
1!
1#
b11010101011001010110001111101010 %
0&
b1100110011001011111101011110110 (
0+
b11010101011001010110001111101010 ,
11
02
b11010101011001010110001111101010 4
b1100110011001011111101011110110 5
b11010101011001010110001111101010 6
#340000
0!
0#
b11010101011001010110001111101010 -
0.
b1100110011001011111101011110110 0
01
#345000
1!
1#
b11111101110101000001100100001101 %
1&
b1100110011001011111101011110110 )
1+
b11111101110101000001100100001101 ,
11
12
b11111101110101000001100100001101 4
b11111101110101000001100100001101 6
#350000
0!
0#
b11111101110101000001100100001101 -
1.
01
#355000
1!
1#
b11001101010001110110101011011100 %
b1100100001110100001010000000011 (
b11001101010001110110101011011100 ,
11
b11001101010001110110101011011100 4
b1100100001110100001010000000011 5
b11001101010001110110101011011100 6
#360000
0!
0#
b11001101010001110110101011011100 -
b1100100001110100001010000000011 0
01
#365000
1!
1#
b11000011101111110101100110101010 %
0&
b110001100000010111111011011111 (
b1100100001110100001010000000011 )
0+
b11000011101111110101100110101010 ,
11
02
b11000011101111110101100110101010 4
b110001100000010111111011011111 5
b11000011101111110101100110101010 6
#370000
0!
0#
b11000011101111110101100110101010 -
0.
b110001100000010111111011011111 0
01
#375000
1!
1#
b100001001110111110010101101110 %
1&
b110001100000010111111011011111 )
1+
b100001001110111110010101101110 ,
11
12
b100001001110111110010101101110 4
b100001001110111110010101101110 6
#380000
0!
0#
b100001001110111110010101101110 -
1.
01
#385000
1!
1#
b10100101101111010000110111011111 %
b1010010101111010110010001001101 (
b10100101101111010000110111011111 ,
11
b10100101101111010000110111011111 4
b1010010101111010110010001001101 5
b10100101101111010000110111011111 6
#390000
0!
0#
b10100101101111010000110111011111 -
b1010010101111010110010001001101 0
01
#395000
1!
1#
b10010001010000101101001100111000 %
0&
b11111000011110100111001000101100 (
b1010010101111010110010001001101 )
0+
b10010001010000101101001100111000 ,
11
02
b10010001010000101101001100111000 4
b11111000011110100111001000101100 5
b10010001010000101101001100111000 6
#400000
0!
0#
b10010001010000101101001100111000 -
0.
b11111000011110100111001000101100 0
01
#405000
1!
1#
b10100011110011010011010110000100 %
1&
b11111000011110100111001000101100 )
1+
b10100011110011010011010110000100 ,
11
12
b10100011110011010011010110000100 4
b10100011110011010011010110000100 6
#410000
0!
0#
b10100011110011010011010110000100 -
1.
01
#415000
1!
1#
b11101010111000011010010111100 %
0&
b10011100010001111010011110110000 (
0+
b11101010111000011010010111100 ,
11
02
b11101010111000011010010111100 4
b10011100010001111010011110110000 5
b11101010111000011010010111100 6
#420000
0!
0#
b11101010111000011010010111100 -
0.
b10011100010001111010011110110000 0
01
#425000
1!
1#
b11111101111011111101000011011111 %
1&
b10011100010001111010011110110000 )
1+
b11111101111011111101000011011111 ,
11
12
b11111101111011111101000011011111 4
b11111101111011111101000011011111 6
#430000
0!
0#
b11111101111011111101000011011111 -
1.
01
#435000
1!
1#
b11000101100010000000100110101101 %
b10011010001101110111100010001111 (
b11000101100010000000100110101101 ,
11
b11000101100010000000100110101101 4
b10011010001101110111100010001111 5
b11000101100010000000100110101101 6
#440000
0!
0#
b11000101100010000000100110101101 -
b10011010001101110111100010001111 0
01
#445000
1!
1#
b110100001001001101111101010111 %
b1011111101111111000001000111100 (
b10011010001101110111100010001111 )
b110100001001001101111101010111 ,
11
b110100001001001101111101010111 4
b1011111101111111000001000111100 5
b110100001001001101111101010111 6
#450000
0!
0#
b110100001001001101111101010111 -
b1011111101111111000001000111100 0
01
#455000
1!
1#
b1001110001100101001000100001 %
b10010011111001000110000110010011 (
b1011111101111111000001000111100 )
b1001110001100101001000100001 ,
11
b1001110001100101001000100001 4
b10010011111001000110000110010011 5
b1001110001100101001000100001 6
#460000
0!
0#
b1001110001100101001000100001 -
b10010011111001000110000110010011 0
01
#465000
1!
1#
b110011011000110000110100111 %
b10011101101010101011001110110100 (
b10010011111001000110000110010011 )
b110011011000110000110100111 ,
11
b110011011000110000110100111 4
b10011101101010101011001110110100 5
b110011011000110000110100111 6
#470000
0!
0#
b110011011000110000110100111 -
b10011101101010101011001110110100 0
01
#475000
1!
1#
b11101010000101110000111000011100 %
b10100100000101110001010101011011 (
b10011101101010101011001110110100 )
b11101010000101110000111000011100 ,
11
b11101010000101110000111000011100 4
b10100100000101110001010101011011 5
b11101010000101110000111000011100 6
#480000
0!
0#
b11101010000101110000111000011100 -
b10100100000101110001010101011011 0
01
#485000
1!
1#
b10110100110001100101011101100010 %
0&
b10001110001011100010001101110111 (
b10100100000101110001010101011011 )
0+
b10110100110001100101011101100010 ,
11
02
b10110100110001100101011101100010 4
b10001110001011100010001101110111 5
b10110100110001100101011101100010 6
#490000
0!
0#
b10110100110001100101011101100010 -
0.
b10001110001011100010001101110111 0
01
#495000
1!
1#
b10100110011110100011110101111111 %
b10001110001011100010001101110111 )
b10100110011110100011110101111111 ,
11
b10100110011110100011110101111111 4
b10100110011110100011110101111111 6
#500000
0!
0#
b10100110011110100011110101111111 -
01
#505000
1!
1#
b10111111001100101100000010001101 %
b10111111001100101100000010001101 ,
11
b10111111001100101100000010001101 4
b10111111001100101100000010001101 6
#510000
0!
0#
b10111111001100101100000010001101 -
01
#515000
1!
1#
b111110111011111110000001100110 %
1&
1+
b111110111011111110000001100110 ,
11
12
b111110111011111110000001100110 4
b111110111011111110000001100110 6
#520000
0!
0#
b111110111011111110000001100110 -
1.
01
#525000
1!
1#
b11100101101100011001110101010111 %
0&
b11001101000111100000001111011101 (
0+
b11100101101100011001110101010111 ,
11
02
b11100101101100011001110101010111 4
b11001101000111100000001111011101 5
b11100101101100011001110101010111 6
#530000
0!
0#
b11100101101100011001110101010111 -
0.
b11001101000111100000001111011101 0
01
#535000
1!
1#
b110011011101111111011011110000 %
b11001101000111100000001111011101 )
b110011011101111111011011110000 ,
11
b110011011101111111011011110000 4
b110011011101111111011011110000 6
#540000
0!
0#
b110011011101111111011011110000 -
01
#545000
1!
1#
b10101000010000101110110110001010 %
1&
1+
b10101000010000101110110110001010 ,
11
12
b10101000010000101110110110001010 4
b10101000010000101110110110001010 6
#550000
0!
0#
b10101000010000101110110110001010 -
1.
01
#555000
1!
1#
b10000100000100101000000011101111 %
b1110101011000001111000101100111 (
b10000100000100101000000011101111 ,
11
b10000100000100101000000011101111 4
b1110101011000001111000101100111 5
b10000100000100101000000011101111 6
#560000
0!
0#
b10000100000100101000000011101111 -
b1110101011000001111000101100111 0
01
#565000
1!
1#
b11000110111001101011000101010010 %
b11111001011100110111001001010110 (
b1110101011000001111000101100111 )
b11000110111001101011000101010010 ,
11
b11000110111001101011000101010010 4
b11111001011100110111001001010110 5
b11000110111001101011000101010010 6
#570000
0!
0#
b11000110111001101011000101010010 -
b11111001011100110111001001010110 0
01
#575000
1!
1#
b11110000101111110111111001101101 %
0&
b11000000010110100010001110101000 (
b11111001011100110111001001010110 )
0+
b11110000101111110111111001101101 ,
11
02
b11110000101111110111111001101101 4
b11000000010110100010001110101000 5
b11110000101111110111111001101101 6
#580000
0!
0#
b11110000101111110111111001101101 -
0.
b11000000010110100010001110101000 0
01
#585000
1!
1#
b10000001100111001110100010000001 %
1&
b11000000010110100010001110101000 )
1+
b10000001100111001110100010000001 ,
11
12
b10000001100111001110100010000001 4
b10000001100111001110100010000001 6
#590000
0!
0#
b10000001100111001110100010000001 -
1.
01
#595000
1!
1#
b11111001011111101110111101100110 %
b1000001111101110000110000101001 (
b11111001011111101110111101100110 ,
11
b11111001011111101110111101100110 4
b1000001111101110000110000101001 5
b11111001011111101110111101100110 6
#600000
0!
0#
b11111001011111101110111101100110 -
b1000001111101110000110000101001 0
01
#605000
1!
1#
b11011000011001011001001100111001 %
b111011011101011111101110001111 (
b1000001111101110000110000101001 )
b11011000011001011001001100111001 ,
11
b11011000011001011001001100111001 4
b111011011101011111101110001111 5
b11011000011001011001001100111001 6
#610000
0!
0#
b11011000011001011001001100111001 -
b111011011101011111101110001111 0
01
#615000
1!
1#
b11110010100001101001111100110 %
0&
b10011110110111000111011001000 (
b111011011101011111101110001111 )
0+
b11110010100001101001111100110 ,
11
02
b11110010100001101001111100110 4
b10011110110111000111011001000 5
b11110010100001101001111100110 6
#620000
0!
0#
b11110010100001101001111100110 -
0.
b10011110110111000111011001000 0
01
#625000
1!
1#
b11001011010000001011000110001010 %
b10011110110111000111011001000 )
b11001011010000001011000110001010 ,
11
b11001011010000001011000110001010 4
b11001011010000001011000110001010 6
#630000
0!
0#
b11001011010000001011000110001010 -
01
#635000
1!
1#
b11011111001101010010101111011111 %
b11011111001101010010101111011111 ,
11
b11011111001101010010101111011111 4
b11011111001101010010101111011111 6
#640000
0!
0#
b11011111001101010010101111011111 -
01
#645000
1!
1#
b11011010001011100100001101000100 %
b11011010001011100100001101000100 ,
11
b11011010001011100100001101000100 4
b11011010001011100100001101000100 6
#650000
0!
0#
b11011010001011100100001101000100 -
01
#655000
1!
1#
b111100001010111111011110000010 %
1&
1+
b111100001010111111011110000010 ,
11
12
b111100001010111111011110000010 4
b111100001010111111011110000010 6
#660000
0!
0#
b111100001010111111011110000010 -
1.
01
#665000
1!
1#
b11000101001011100100100010011100 %
0&
b1010000000001111000011001001010 (
0+
b11000101001011100100100010011100 ,
11
02
b11000101001011100100100010011100 4
b1010000000001111000011001001010 5
b11000101001011100100100010011100 6
#670000
0!
0#
b11000101001011100100100010011100 -
0.
b1010000000001111000011001001010 0
01
#675000
1!
1#
b10110101001101010011011001110100 %
b1010000000001111000011001001010 )
b10110101001101010011011001110100 ,
11
b10110101001101010011011001110100 4
b10110101001101010011011001110100 6
#680000
0!
0#
b10110101001101010011011001110100 -
01
#685000
1!
1#
b11001100010000001100000101000101 %
1&
1+
b11001100010000001100000101000101 ,
11
12
b11001100010000001100000101000101 4
b11001100010000001100000101000101 6
#690000
0!
0#
b11001100010000001100000101000101 -
1.
01
#695000
1!
1#
b10001010010100001110100011110110 %
b11100010010000100011110001111 (
b10001010010100001110100011110110 ,
11
b10001010010100001110100011110110 4
b11100010010000100011110001111 5
b10001010010100001110100011110110 6
#700000
0!
0#
b10001010010100001110100011110110 -
b11100010010000100011110001111 0
01
#705000
1!
1#
b10101111011001011010110110100111 %
b10100110100110010011000010000101 (
b11100010010000100011110001111 )
b10101111011001011010110110100111 ,
11
b10101111011001011010110110100111 4
b10100110100110010011000010000101 5
b10101111011001011010110110100111 6
#710000
0!
0#
b10101111011001011010110110100111 -
b10100110100110010011000010000101 0
01
#715000
1!
1#
b11111011011111110000111100001100 %
0&
b1010101111111101101111000101100 (
b10100110100110010011000010000101 )
0+
b11111011011111110000111100001100 ,
11
02
b11111011011111110000111100001100 4
b1010101111111101101111000101100 5
b11111011011111110000111100001100 6
#720000
0!
0#
b11111011011111110000111100001100 -
0.
b1010101111111101101111000101100 0
01
#725000
1!
1#
b11101110100111010000110101100000 %
b1010101111111101101111000101100 )
b11101110100111010000110101100000 ,
11
b11101110100111010000110101100000 4
b11101110100111010000110101100000 6
#730000
0!
0#
b11101110100111010000110101100000 -
01
#735000
1!
1#
b10001000101111111010100010000111 %
b10001000101111111010100010000111 ,
11
b10001000101111111010100010000111 4
b10001000101111111010100010000111 6
#740000
0!
0#
b10001000101111111010100010000111 -
01
#745000
1!
1#
b1001111001101110000011000101 %
1&
1+
b1001111001101110000011000101 ,
11
12
b1001111001101110000011000101 4
b1001111001101110000011000101 6
#750000
0!
0#
b1001111001101110000011000101 -
1.
01
#755000
1!
1#
b11110010000100101011010110001101 %
b1011111111001011011111011110001 (
b11110010000100101011010110001101 ,
11
b11110010000100101011010110001101 4
b1011111111001011011111011110001 5
b11110010000100101011010110001101 6
#760000
0!
0#
b11110010000100101011010110001101 -
b1011111111001011011111011110001 0
01
#765000
1!
1#
b11000001010000110010011101111010 %
b1010001111110000111010001111110 (
b1011111111001011011111011110001 )
b11000001010000110010011101111010 ,
11
b11000001010000110010011101111010 4
b1010001111110000111010001111110 5
b11000001010000110010011101111010 6
#770000
0!
0#
b11000001010000110010011101111010 -
b1010001111110000111010001111110 0
01
#775000
1!
1#
b110111011110000011011000001111 %
0&
b10011001110111001101111111000 (
b1010001111110000111010001111110 )
0+
b110111011110000011011000001111 ,
11
02
b110111011110000011011000001111 4
b10011001110111001101111111000 5
b110111011110000011011000001111 6
#780000
0!
0#
b110111011110000011011000001111 -
0.
b10011001110111001101111111000 0
01
#785000
1!
1#
b10100101100011110000111000010 %
1&
b10011001110111001101111111000 )
1+
b10100101100011110000111000010 ,
11
12
b10100101100011110000111000010 4
b10100101100011110000111000010 6
#790000
0!
0#
b10100101100011110000111000010 -
1.
01
#795000
1!
1#
b11000111100000010101000100011 %
0&
b100111111011010111110110111010 (
0+
b11000111100000010101000100011 ,
11
02
b11000111100000010101000100011 4
b100111111011010111110110111010 5
b11000111100000010101000100011 6
#800000
0!
0#
b11000111100000010101000100011 -
0.
b100111111011010111110110111010 0
01
#805000
1!
1#
b10000100001100110000111110000001 %
1&
b100111111011010111110110111010 )
1+
b10000100001100110000111110000001 ,
11
12
b10000100001100110000111110000001 4
b10000100001100110000111110000001 6
#810000
0!
0#
b10000100001100110000111110000001 -
1.
01
#815000
1!
1#
b10110011110101001000110011110 %
b10101100001000001000110100111011 (
b10110011110101001000110011110 ,
11
b10110011110101001000110011110 4
b10101100001000001000110100111011 5
b10110011110101001000110011110 6
#820000
0!
0#
b10110011110101001000110011110 -
b10101100001000001000110100111011 0
01
#825000
1!
1#
b11001111110001101011000011010111 %
b11000010100110110001111011011001 (
b10101100001000001000110100111011 )
b11001111110001101011000011010111 ,
11
b11001111110001101011000011010111 4
b11000010100110110001111011011001 5
b11001111110001101011000011010111 6
#830000
0!
0#
b11001111110001101011000011010111 -
b11000010100110110001111011011001 0
01
#835000
1!
1#
b110000000101110110110010111100 %
b10010010011000011100111110110000 (
b11000010100110110001111011011001 )
b110000000101110110110010111100 ,
11
b110000000101110110110010111100 4
b10010010011000011100111110110000 5
b110000000101110110110010111100 6
#840000
0!
0#
b110000000101110110110010111100 -
b10010010011000011100111110110000 0
01
#845000
1!
1#
b10110111011011001100010110001100 %
b11000010011110010011110001101100 (
b10010010011000011100111110110000 )
b10110111011011001100010110001100 ,
11
b10110111011011001100010110001100 4
b11000010011110010011110001101100 5
b10110111011011001100010110001100 6
#850000
0!
0#
b10110111011011001100010110001100 -
b11000010011110010011110001101100 0
01
#855000
1!
1#
b11100101110001101011101100111110 %
b1111001111001100000000111111000 (
b11000010011110010011110001101100 )
b11100101110001101011101100111110 ,
11
b11100101110001101011101100111110 4
b1111001111001100000000111111000 5
b11100101110001101011101100111110 6
#860000
0!
0#
b11100101110001101011101100111110 -
b1111001111001100000000111111000 0
01
#865000
1!
1#
b10111011001001010100110111100000 %
0&
b1011111101011001011110100110110 (
b1111001111001100000000111111000 )
0+
b10111011001001010100110111100000 ,
11
02
b10111011001001010100110111100000 4
b1011111101011001011110100110110 5
b10111011001001010100110111100000 6
#870000
0!
0#
b10111011001001010100110111100000 -
0.
b1011111101011001011110100110110 0
01
#875000
1!
1#
b110111100010000111110101011110 %
b1011111101011001011110100110110 )
b110111100010000111110101011110 ,
11
b110111100010000111110101011110 4
b110111100010000111110101011110 6
#880000
0!
0#
b110111100010000111110101011110 -
01
#885000
1!
1#
b11010111100000100100110110010 %
1&
1+
b11010111100000100100110110010 ,
11
12
b11010111100000100100110110010 4
b11010111100000100100110110010 6
#890000
0!
0#
b11010111100000100100110110010 -
1.
01
#895000
1!
1#
b100101010111001011001011101100 %
b1111010100111010000011011101000 (
b100101010111001011001011101100 ,
11
b100101010111001011001011101100 4
b1111010100111010000011011101000 5
b100101010111001011001011101100 6
#900000
0!
0#
b100101010111001011001011101100 -
b1111010100111010000011011101000 0
01
#905000
1!
1#
b11010110110011011011100100000010 %
b10011111111110011011100111010100 (
b1111010100111010000011011101000 )
b11010110110011011011100100000010 ,
11
b11010110110011011011100100000010 4
b10011111111110011011100111010100 5
b11010110110011011011100100000010 6
#910000
0!
0#
b11010110110011011011100100000010 -
b10011111111110011011100111010100 0
01
#915000
1!
1#
b11101111010000110101101111101101 %
b1110110110001110111001011010110 (
b10011111111110011011100111010100 )
b11101111010000110101101111101101 ,
11
b11101111010000110101101111101101 4
b1110110110001110111001011010110 5
b11101111010000110101101111101101 6
#920000
0!
0#
b11101111010000110101101111101101 -
b1110110110001110111001011010110 0
01
#925000
1!
1#
b101110101111011001101111001000 %
b1100110000010101100111011000011 (
b1110110110001110111001011010110 )
b101110101111011001101111001000 ,
11
b101110101111011001101111001000 4
b1100110000010101100111011000011 5
b101110101111011001101111001000 6
#930000
0!
0#
b101110101111011001101111001000 -
b1100110000010101100111011000011 0
01
#935000
1!
1#
b10010101001111000111100010000101 %
b10010100110010000110101010001011 (
b1100110000010101100111011000011 )
b10010101001111000111100010000101 ,
11
b10010101001111000111100010000101 4
b10010100110010000110101010001011 5
b10010101001111000111100010000101 6
#940000
0!
0#
b10010101001111000111100010000101 -
b10010100110010000110101010001011 0
01
#945000
1!
1#
b100010101111111111001000101000 %
0&
b101010000001001110001100010000 (
b10010100110010000110101010001011 )
0+
b100010101111111111001000101000 ,
11
02
b100010101111111111001000101000 4
b101010000001001110001100010000 5
b100010101111111111001000101000 6
#950000
0!
0#
b100010101111111111001000101000 -
0.
b101010000001001110001100010000 0
01
#955000
1!
1#
b11010111010010000000100010100101 %
b101010000001001110001100010000 )
b11010111010010000000100010100101 ,
11
b11010111010010000000100010100101 4
b11010111010010000000100010100101 6
#960000
0!
0#
b11010111010010000000100010100101 -
01
#965000
1!
1#
b11110010110101001011101111110101 %
b11110010110101001011101111110101 ,
11
b11110010110101001011101111110101 4
b11110010110101001011101111110101 6
#970000
0!
0#
b11110010110101001011101111110101 -
01
#975000
1!
1#
b11110101011001100000110000100011 %
1&
1+
b11110101011001100000110000100011 ,
11
12
b11110101011001100000110000100011 4
b11110101011001100000110000100011 6
#980000
0!
0#
b11110101011001100000110000100011 -
1.
01
#985000
1!
1#
b10011110111110111111100101010111 %
b11111011010101110111100110011 (
b10011110111110111111100101010111 ,
11
b10011110111110111111100101010111 4
b11111011010101110111100110011 5
b10011110111110111111100101010111 6
#990000
0!
0#
b10011110111110111111100101010111 -
b11111011010101110111100110011 0
01
#995000
1!
1#
b10101111100101101000001100110010 %
b10111110011001101110100010001010 (
b11111011010101110111100110011 )
b10101111100101101000001100110010 ,
11
b10101111100101101000001100110010 4
b10111110011001101110100010001010 5
b10101111100101101000001100110010 6
#1000000
0!
0#
b10101111100101101000001100110010 -
b10111110011001101110100010001010 0
01
#1005000
1!
1#
b11100111001101011010101000100001 %
0&
b1101101111111010110101110111100 (
b10111110011001101110100010001010 )
0+
b11100111001101011010101000100001 ,
11
02
b11100111001101011010101000100001 4
b1101101111111010110101110111100 5
b11100111001101011010101000100001 6
#1010000
0!
0#
b11100111001101011010101000100001 -
0.
b1101101111111010110101110111100 0
01
#1015000
1!
1#
b11000101110110010110110111111011 %
b1101101111111010110101110111100 )
b11000101110110010110110111111011 ,
11
b11000101110110010110110111111011 4
b11000101110110010110110111111011 6
#1020000
0!
0#
b11000101110110010110110111111011 -
01
#1025000
1!
1#
b11001011100000011100111001111011 %
1&
1+
b11001011100000011100111001111011 ,
11
12
b11001011100000011100111001111011 4
b11001011100000011100111001111011 6
#1030000
0!
0#
b11001011100000011100111001111011 -
1.
01
#1035000
1!
1#
b11111000001011101100101111101000 %
b111001011111110011101000110111 (
b11111000001011101100101111101000 ,
11
b11111000001011101100101111101000 4
b111001011111110011101000110111 5
b11111000001011101100101111101000 6
#1040000
0!
0#
b11111000001011101100101111101000 -
b111001011111110011101000110111 0
01
#1045000
1!
1#
b11001011111000000110011001001000 %
b110001101011100000011000011111 (
b111001011111110011101000110111 )
b11001011111000000110011001001000 ,
11
b11001011111000000110011001001000 4
b110001101011100000011000011111 5
b11001011111000000110011001001000 6
#1050000
0!
0#
b11001011111000000110011001001000 -
b110001101011100000011000011111 0
01
#1055000
1!
1#
b11000110100101101001110110000100 %
0&
b11111101100011100110110001100111 (
b110001101011100000011000011111 )
0+
b11000110100101101001110110000100 ,
11
02
b11000110100101101001110110000100 4
b11111101100011100110110001100111 5
b11000110100101101001110110000100 6
#1060000
0!
0#
b11000110100101101001110110000100 -
0.
b11111101100011100110110001100111 0
01
#1065000
1!
1#
b11101000010100010111000110100100 %
1&
b11111101100011100110110001100111 )
1+
b11101000010100010111000110100100 ,
11
12
b11101000010100010111000110100100 4
b11101000010100010111000110100100 6
#1070000
0!
0#
b11101000010100010111000110100100 -
1.
01
#1075000
1!
1#
b10110001000100001110001010100000 %
0&
b11100101110111111101111000001011 (
0+
b10110001000100001110001010100000 ,
11
02
b10110001000100001110001010100000 4
b11100101110111111101111000001011 5
b10110001000100001110001010100000 6
#1080000
0!
0#
b10110001000100001110001010100000 -
0.
b11100101110111111101111000001011 0
01
#1085000
1!
1#
b11100000110101001111000001111011 %
1&
b11100101110111111101111000001011 )
1+
b11100000110101001111000001111011 ,
11
12
b11100000110101001111000001111011 4
b11100000110101001111000001111011 6
#1090000
0!
0#
b11100000110101001111000001111011 -
1.
01
#1095000
1!
1#
b10110111100111011001101101000100 %
b11000110101101001100111010000110 (
b10110111100111011001101101000100 ,
11
b10110111100111011001101101000100 4
b11000110101101001100111010000110 5
b10110111100111011001101101000100 6
