UVM_Tests/test.vcd
$date
   Tue Nov  1 14:09:41 2022
$end
$version
  2021.2
$end
$timescale
  1ps
$end
$scope module accum_tb_top $end
$var reg 1 ! clk $end
$var reg 1 " reset_n $end
$scope module accum_intf $end
$var wire 1 # clk $end
$var wire 1 $ reset_n $end
$var reg 32 % data [31:0] $end
$var reg 1 & enable $end
$var reg 1 ' clear $end
$var reg 32 ( accum [31:0] $end
$scope module DRV $end
$var wire 1 # clk $end
$var wire 1 $ reset_n $end
$upscope $end
$scope module RCV $end
$var wire 1 # clk $end
$var wire 1 $ reset_n $end
$upscope $end
$scope module dr_cb $end
$var reg 32 ) accum [31:0] $end
$var reg 1 * clear $end
$var reg 1 + enable $end
$var reg 32 , data [31:0] $end
$upscope $end
$scope module rc_cb $end
$var reg 32 - data [31:0] $end
$var reg 1 . enable $end
$var reg 1 / clear $end
$var reg 32 0 accum [31:0] $end
$upscope $end
$upscope $end
$scope module dut $end
$var wire 1 1 clk $end
$var wire 1 2 en_i $end
$var wire 1 3 clear_i $end
$var wire 32 4 data_i [31:0] $end
$var reg 32 5 result_o [31:0] $end
$var wire 32 6 in_data_sext [31:0] $end
$upscope $end
$upscope $end
$enddefinitions $end
#0
$dumpvars
0!
0"
0#
0$
bx %
x&
x'
bx (
bx )
1*
0+
b0 ,
bx -
x.
x/
bx 0
01
x2
x3
bx 4
bx 5
bx 6
$end
#5000
1!
1#
b0 %
0&
1'
11
02
13
b0 4
b0 6
#10000
0!
0#
b0 -
0.
1/
01
#15000
1!
1#
b0 (
11
b0 5
#20000
0!
0#
b0 0
01
#25000
1!
1#
b0 )
11
#30000
0!
0#
01
#35000
1!
1#
11
#40000
0!
0#
01
#45000
1!
1#
0'
0*
11
03
#50000
0!
1"
0#
1$
0/
01
#55000
1!
1#
11
#60000
0!
0#
01
#65000
1!
1#
11
#70000
0!
0#
01
#75000
1!
1#
11
#80000
0!
0#
01
#85000
1!
1#
11
#90000
0!
0#
01
#95000
1!
1#
11
#100000
0!
0#
01
#105000
1!
1#
b110111010001110 %
1&
1+
b110111010001110 ,
11
12
b110111010001110 4
b110111010001110 6
#110000
0!
0#
b110111010001110 -
1.
01
#115000
1!
1#
b111000001000101 %
0&
b110111010001110 (
0+
b111000001000101 ,
11
02
b111000001000101 4
b110111010001110 5
b111000001000101 6
#120000
0!
0#
b111000001000101 -
0.
b110111010001110 0
01
#125000
1!
1#
b111010011100001 %
b110111010001110 )
b111010011100001 ,
11
b111010011100001 4
b111010011100001 6
#130000
0!
0#
b111010011100001 -
01
#135000
1!
1#
b111110001101000 %
b111110001101000 ,
11
b111110001101000 4
b111110001101000 6
#140000
0!
0#
b111110001101000 -
01
#145000
1!
1#
b1000010110100110 %
1&
1+
b1000010110100110 ,
11
12
b1000010110100110 4
b1000010110100110 6
#150000
0!
0#
b1000010110100110 -
1.
01
#155000
1!
1#
b1000111011100011 %
0&
b1111010000110100 (
0+
b1000111011100011 ,
11
02
b1000111011100011 4
b1111010000110100 5
b1000111011100011 6
#160000
0!
0#
b1000111011100011 -
0.
b1111010000110100 0
01
#165000
1!
1#
b1010000000001101 %
b1111010000110100 )
b1010000000001101 ,
11
b1010000000001101 4
b1010000000001101 6
#170000
0!
0#
b1010000000001101 -
01
#175000
1!
1#
b1011000011010010 %
b1011000011010010 ,
11
b1011000011010010 4
b1011000011010010 6
#180000
0!
0#
b1011000011010010 -
01
#185000
1!
1#
b1100000001111001 %
b1100000001111001 ,
11
b1100000001111001 4
b1100000001111001 6
#190000
0!
0#
b1100000001111001 -
01
#195000
1!
1#
b1101011000000000 %
1&
1+
b1101011000000000 ,
11
12
b1101011000000000 4
b1101011000000000 6
#200000
0!
0#
b1101011000000000 -
1.
01
#205000
1!
1#
b1110111100101111 %
0&
b11100101000110100 (
0+
b1110111100101111 ,
11
02
b1110111100101111 4
b11100101000110100 5
b1110111100101111 6
#210000
0!
0#
b1110111100101111 -
0.
b11100101000110100 0
01
#215000
1!
1#
b11110110110 %
1&
b11100101000110100 )
1+
b11110110110 ,
11
12
b11110110110 4
b11110110110 6
#220000
0!
0#
b11110110110 -
1.
01
#225000
1!
1#
b10011101110001 %
b11101000111101010 (
b10011101110001 ,
11
b10011101110001 4
b11101000111101010 5
b10011101110001 6
#230000
0!
0#
b10011101110001 -
b11101000111101010 0
01
#235000
1!
1#
b100010101100000 %
0&
b11111100101011011 (
b11101000111101010 )
0+
b100010101100000 ,
11
02
b100010101100000 4
b11111100101011011 5
b100010101100000 6
#240000
0!
0#
b100010101100000 -
0.
b11111100101011011 0
01
#245000
1!
1#
b110011100100001 %
1&
b11111100101011011 )
1+
b110011100100001 ,
11
12
b110011100100001 4
b110011100100001 6
#250000
0!
0#
b110011100100001 -
1.
01
#255000
1!
1#
b1000101010100111 %
0&
b100110000001111100 (
0+
b1000101010100111 ,
11
02
b1000101010100111 4
b100110000001111100 5
b1000101010100111 6
#260000
0!
0#
b1000101010100111 -
0.
b100110000001111100 0
01
#265000
1!
1#
b1011000011101001 %
b100110000001111100 )
b1011000011101001 ,
11
b1011000011101001 4
b1011000011101001 6
#270000
0!
0#
b1011000011101001 -
01
#275000
1!
1#
b1101100011111101 %
b1101100011111101 ,
11
b1101100011111101 4
b1101100011111101 6
#280000
0!
0#
b1101100011111101 -
01
#285000
1!
1#
b10001001001 %
b10001001001 ,
11
b10001001001 4
b10001001001 6
#290000
0!
0#
b10001001001 -
01
#295000
1!
1#
b11000100000000 %
b11000100000000 ,
11
b11000100000000 4
b11000100000000 6
#300000
0!
0#
b11000100000000 -
01
#305000
1!
1#
b101110110110010 %
b101110110110010 ,
11
b101110110110010 4
b101110110110010 6
#310000
0!
0#
b101110110110010 -
01
#315000
1!
1#
b1001001000100000 %
b1001001000100000 ,
11
b1001001000100000 4
b1001001000100000 6
#320000
0!
0#
b1001001000100000 -
01
#325000
1!
1#
b1100001101101110 %
b1100001101101110 ,
11
b1100001101101110 4
b1100001101101110 6
#330000
0!
0#
b1100001101101110 -
01
#335000
1!
1#
b1111101110010010 %
b1111101110010010 ,
11
b1111101110010010 4
b1111101110010010 6
#340000
0!
0#
b1111101110010010 -
01
#345000
1!
1#
b11001011001101 %
1'
1*
b11001011001101 ,
11
13
b11001011001101 4
b11001011001101 6
#350000
0!
0#
b11001011001101 -
1/
01
#355000
1!
1#
b111000010010001 %
1&
0'
b0 (
0*
1+
b111000010010001 ,
11
12
03
b111000010010001 4
b0 5
b111000010010001 6
#360000
0!
0#
b111000010010001 -
1.
0/
b0 0
01
#365000
1!
1#
b1010111000111001 %
0&
b111000010010001 (
b0 )
0+
b1010111000111001 ,
11
02
b1010111000111001 4
b111000010010001 5
b1010111000111001 6
#370000
0!
0#
b1010111000111001 -
0.
b111000010010001 0
01
#375000
1!
1#
b1110111111010000 %
1&
b111000010010001 )
1+
b1110111111010000 ,
11
12
b1110111111010000 4
b1110111111010000 6
#380000
0!
0#
b1110111111010000 -
1.
01
#385000
1!
1#
b10111100100001 %
b10110000001100001 (
b10111100100001 ,
11
b10111100100001 4
b10110000001100001 5
b10111100100001 6
#390000
0!
0#
b10111100100001 -
b10110000001100001 0
01
#395000
1!
1#
b111001100110100 %
0&
b11000111110000010 (
b10110000001100001 )
0+
b111001100110100 ,
11
02
b111001100110100 4
b11000111110000010 5
b111001100110100 6
#400000
0!
0#
b111001100110100 -
0.
b11000111110000010 0
01
#405000
1!
1#
b1011110100110111 %
1&
b11000111110000010 )
1+
b1011110100110111 ,
11
12
b1011110100110111 4
b1011110100110111 6
#410000
0!
0#
b1011110100110111 -
1.
01
#415000
1!
1#
b10000111100 %
0&
1'
b100100110010111001 (
1*
0+
b10000111100 ,
11
02
13
b10000111100 4
b100100110010111001 5
b10000111100 6
#420000
0!
0#
b10000111100 -
0.
1/
b100100110010111001 0
01
#425000
1!
1#
b101001000001100 %
b0 (
b100100110010111001 )
b101001000001100 ,
11
b101001000001100 4
b0 5
b101001000001100 6
#430000
0!
0#
b101001000001100 -
b0 0
01
#435000
1!
1#
b1010000101011101 %
0'
b0 )
0*
b1010000101011101 ,
11
03
b1010000101011101 4
b1010000101011101 6
#440000
0!
0#
b1010000101011101 -
0/
01
#445000
1!
1#
b1111001010010010 %
b1111001010010010 ,
11
b1111001010010010 4
b1111001010010010 6
#450000
0!
0#
b1111001010010010 -
01
#455000
1!
1#
b100010011111001 %
1&
1+
b100010011111001 ,
11
12
b100010011111001 4
b100010011111001 6
#460000
0!
0#
b100010011111001 -
1.
01
#465000
1!
1#
b1001011111110001 %
b100010011111001 (
b1001011111110001 ,
11
b1001011111110001 4
b100010011111001 5
b1001011111110001 6
#470000
0!
0#
b1001011111110001 -
b100010011111001 0
01
#475000
1!
1#
b1111000111010011 %
b1101110011101010 (
b100010011111001 )
b1111000111010011 ,
11
b1111000111010011 4
b1101110011101010 5
b1111000111010011 6
#480000
0!
0#
b1111000111010011 -
b1101110011101010 0
01
#485000
1!
1#
b100101110001101 %
0&
b11100111010111101 (
b1101110011101010 )
0+
b100101110001101 ,
11
02
b100101110001101 4
b11100111010111101 5
b100101110001101 6
#490000
0!
0#
b100101110001101 -
0.
b11100111010111101 0
01
#495000
1!
1#
b1010100011111111 %
1&
b11100111010111101 )
1+
b1010100011111111 ,
11
12
b1010100011111111 4
b1010100011111111 6
#500000
0!
0#
b1010100011111111 -
1.
01
#505000
1!
1#
b11101101011 %
0&
1'
b100111011110111100 (
1*
0+
b11101101011 ,
11
02
13
b11101101011 4
b100111011110111100 5
b11101101011 6
#510000
0!
0#
b11101101011 -
0.
1/
b100111011110111100 0
01
#515000
1!
1#
b110011001110101 %
0'
b0 (
b100111011110111100 )
0*
b110011001110101 ,
11
03
b110011001110101 4
b0 5
b110011001110101 6
#520000
0!
0#
b110011001110101 -
0/
b0 0
01
#525000
1!
1#
b1100110110101011 %
b0 )
b1100110110101011 ,
11
b1100110110101011 4
b1100110110101011 6
#530000
0!
0#
b1100110110101011 -
01
#535000
1!
1#
b11001101110111 %
b11001101110111 ,
11
b11001101110111 4
b11001101110111 6
#540000
0!
0#
b11001101110111 -
01
#545000
1!
1#
b1001110000101100 %
b1001110000101100 ,
11
b1001110000101100 4
b1001110000101100 6
#550000
0!
0#
b1001110000101100 -
01
#555000
1!
1#
b1110111110 %
b1110111110 ,
11
b1110111110 4
b1110111110 6
#560000
0!
0#
b1110111110 -
01
#565000
1!
1#
b111001100100111 %
1'
1*
b111001100100111 ,
11
13
b111001100100111 4
b111001100100111 6
#570000
0!
0#
b111001100100111 -
1/
01
#575000
1!
1#
b1110001000111001 %
1&
0'
0*
1+
b1110001000111001 ,
11
12
03
b1110001000111001 4
b1110001000111001 6
#580000
0!
0#
b1110001000111001 -
1.
0/
01
#585000
1!
1#
b101010101100000 %
0&
b1110001000111001 (
0+
b101010101100000 ,
11
02
b101010101100000 4
b1110001000111001 5
b101010101100000 6
#590000
0!
0#
b101010101100000 -
0.
b1110001000111001 0
01
#595000
1!
1#
b1100011000010111 %
b1110001000111001 )
b1100011000010111 ,
11
b1100011000010111 4
b1100011000010111 6
#600000
0!
0#
b1100011000010111 -
01
#605000
1!
1#
b11111011101111 %
1&
1+
b11111011101111 ,
11
12
b11111011101111 4
b11111011101111 6
#610000
0!
0#
b11111011101111 -
1.
01
#615000
1!
1#
b1011011001011001 %
0&
b10010000100101000 (
0+
b1011011001011001 ,
11
02
b1011011001011001 4
b10010000100101000 5
b1011011001011001 6
#620000
0!
0#
b1011011001011001 -
0.
b10010000100101000 0
01
#625000
1!
1#
b11010011100110 %
b10010000100101000 )
b11010011100110 ,
11
b11010011100110 4
b11010011100110 6
#630000
0!
0#
b11010011100110 -
01
#635000
1!
1#
b1011001011101100 %
b1011001011101100 ,
11
b1011001011101100 4
b1011001011101100 6
#640000
0!
0#
b1011001011101100 -
01
#645000
1!
1#
b11001000011100 %
b11001000011100 ,
11
b11001000011100 4
b11001000011100 6
#650000
0!
0#
b11001000011100 -
01
#655000
1!
1#
b1011010100000010 %
1'
1*
b1011010100000010 ,
11
13
b1011010100000010 4
b1011010100000010 6
#660000
0!
0#
b1011010100000010 -
1/
01
#665000
1!
1#
b11101011001101 %
b0 (
b11101011001101 ,
11
b11101011001101 4
b0 5
b11101011001101 6
#670000
0!
0#
b11101011001101 -
b0 0
01
#675000
1!
1#
b1100000100011110 %
0'
b0 )
0*
b1100000100011110 ,
11
03
b1100000100011110 4
b1100000100011110 6
#680000
0!
0#
b1100000100011110 -
0/
01
#685000
1!
1#
b100101110010011 %
b100101110010011 ,
11
b100101110010011 4
b100101110010011 6
#690000
0!
0#
b100101110010011 -
01
#695000
1!
1#
b1101010011000110 %
b1101010011000110 ,
11
b1101010011000110 4
b1101010011000110 6
#700000
0!
0#
b1101010011000110 -
01
#705000
1!
1#
b110001100000001 %
1'
1*
b110001100000001 ,
11
13
b110001100000001 4
b110001100000001 6
#710000
0!
0#
b110001100000001 -
1/
01
#715000
1!
1#
b1111001110111010 %
b1111001110111010 ,
11
b1111001110111010 4
b1111001110111010 6
#720000
0!
0#
b1111001110111010 -
01
#725000
1!
1#
b1000100001111001 %
1&
0'
0*
1+
b1000100001111001 ,
11
12
03
b1000100001111001 4
b1000100001111001 6
#730000
0!
0#
b1000100001111001 -
1.
0/
01
#735000
1!
1#
b1111100001010 %
0&
1'
b1000100001111001 (
1*
0+
b1111100001010 ,
11
02
13
b1111100001010 4
b1000100001111001 5
b1111100001010 6
#740000
0!
0#
b1111100001010 -
0.
1/
b1000100001111001 0
01
#745000
1!
1#
b1011011110001110 %
0'
b0 (
b1000100001111001 )
0*
b1011011110001110 ,
11
03
b1011011110001110 4
b0 5
b1011011110001110 6
#750000
0!
0#
b1011011110001110 -
0/
b0 0
01
#755000
1!
1#
b101000110001110 %
1&
b0 )
1+
b101000110001110 ,
11
12
b101000110001110 4
b101000110001110 6
#760000
0!
0#
b101000110001110 -
1.
01
#765000
1!
1#
b1110101010110111 %
0&
b101000110001110 (
0+
b1110101010110111 ,
11
02
b1110101010110111 4
b101000110001110 5
b1110101010110111 6
#770000
0!
0#
b1110101010110111 -
0.
b101000110001110 0
01
#775000
1!
1#
b1000101001111101 %
b101000110001110 )
b1000101001111101 ,
11
b1000101001111101 4
b1000101001111101 6
#780000
0!
0#
b1000101001111101 -
01
#785000
1!
1#
b10111001011110 %
1'
1*
b10111001011110 ,
11
13
b10111001011110 4
b10111001011110 6
#790000
0!
0#
b10111001011110 -
1/
01
#795000
1!
1#
b1101000111000011 %
0'
b0 (
0*
b1101000111000011 ,
11
03
b1101000111000011 4
b0 5
b1101000111000011 6
#800000
0!
0#
b1101000111000011 -
0/
b0 0
01
#805000
1!
1#
b111010101000000 %
b0 )
b111010101000000 ,
11
b111010101000000 4
b111010101000000 6
#810000
0!
0#
b111010101000000 -
01
#815000
1!
1#
b1111001011011 %
b1111001011011 ,
11
b1111001011011 4
b1111001011011 6
#820000
0!
0#
b1111001011011 -
01
#825000
1!
1#
b1100101110001010 %
b1100101110001010 ,
11
b1100101110001010 4
b1100101110001010 6
#830000
0!
0#
b1100101110001010 -
01
#835000
1!
1#
b111100101011010 %
b111100101011010 ,
11
b111100101011010 4
b111100101011010 6
#840000
0!
0#
b111100101011010 -
01
#845000
1!
1#
b10100100010110 %
1'
1*
b10100100010110 ,
11
13
b10100100010110 4
b10100100010110 6
#850000
0!
0#
b10100100010110 -
1/
01
#855000
1!
1#
b1101011110010000 %
0'
0*
b1101011110010000 ,
11
03
b1101011110010000 4
b1101011110010000 6
#860000
0!
0#
b1101011110010000 -
0/
01
#865000
1!
1#
b1000111100000001 %
b1000111100000001 ,
11
b1000111100000001 4
b1000111100000001 6
#870000
0!
0#
b1000111100000001 -
01
#875000
1!
1#
b100011001010101 %
b100011001010101 ,
11
b100011001010101 4
b100011001010101 6
#880000
0!
0#
b100011001010101 -
01
#885000
1!
1#
b1111110000111100 %
b1111110000111100 ,
11
b1111110000111100 4
b1111110000111100 6
#890000
0!
0#
b1111110000111100 -
01
#895000
1!
1#
b1011100100110100 %
b1011100100110100 ,
11
b1011100100110100 4
b1011100100110100 6
#900000
0!
0#
b1011100100110100 -
01
#905000
1!
1#
b111100011110011 %
b111100011110011 ,
11
b111100011110011 4
b111100011110011 6
#910000
0!
0#
b111100011110011 -
01
#915000
1!
1#
b11100010000001 %
b11100010000001 ,
11
b11100010000001 4
b11100010000001 6
#920000
0!
0#
b11100010000001 -
01
#925000
1!
1#
b1111101111010101 %
b1111101111010101 ,
11
b1111101111010101 4
b1111101111010101 6
#930000
0!
0#
b1111101111010101 -
01
#935000
1!
1#
b1011111100011000 %
1&
1+
b1011111100011000 ,
11
12
b1011111100011000 4
b1011111100011000 6
#940000
0!
0#
b1011111100011000 -
1.
01
#945000
1!
1#
b1000011100111111 %
0&
b1011111100011000 (
0+
b1000011100111111 ,
11
02
b1000011100111111 4
b1011111100011000 5
b1000011100111111 6
#950000
0!
0#
b1000011100111111 -
0.
b1011111100011000 0
01
#955000
1!
1#
b100111100100101 %
b1011111100011000 )
b100111100100101 ,
11
b100111100100101 4
b100111100100101 6
#960000
0!
0#
b100111100100101 -
01
#965000
1!
1#
b1110111010111 %
b1110111010111 ,
11
b1110111010111 4
b1110111010111 6
#970000
0!
0#
b1110111010111 -
01
#975000
1!
1#
b1110110001001001 %
1'
1*
b1110110001001001 ,
11
13
b1110110001001001 4
b1110110001001001 6
#980000
0!
0#
b1110110001001001 -
1/
01
#985000
1!
1#
b1011110011001000 %
1&
0'
b0 (
0*
1+
b1011110011001000 ,
11
12
03
b1011110011001000 4
b0 5
b1011110011001000 6
#990000
0!
0#
b1011110011001000 -
1.
0/
b0 0
01
#995000
1!
1#
b1000111111100101 %
b1011110011001000 (
b0 )
b1000111111100101 ,
11
b1000111111100101 4
b1011110011001000 5
b1000111111100101 6
#1000000
0!
0#
b1000111111100101 -
b1011110011001000 0
01
#1005000
1!
1#
b110010100010111 %
0&
b10100110010101101 (
b1011110011001000 )
0+
b110010100010111 ,
11
02
b110010100010111 4
b10100110010101101 5
b110010100010111 6
#1010000
0!
0#
b110010100010111 -
0.
b10100110010101101 0
01
#1015000
1!
1#
b11111000101010 %
b10100110010101101 )
b11111000101010 ,
11
b11111000101010 4
b11111000101010 6
#1020000
0!
0#
b11111000101010 -
01
#1025000
1!
1#
b1100011001110 %
b1100011001110 ,
11
b1100011001110 4
b1100011001110 6
#1030000
0!
0#
b1100011001110 -
01
#1035000
1!
1#
b1111001000100011 %
b1111001000100011 ,
11
b1111001000100011 4
b1111001000100011 6
#1040000
0!
0#
b1111001000100011 -
01
#1045000
1!
1#
b1101001110001000 %
1&
1+
b1101001110001000 ,
11
12
b1101001110001000 4
b1101001110001000 6
#1050000
0!
0#
b1101001110001000 -
1.
01
#1055000
1!
1#
b1011010011011101 %
b100010000000110101 (
b1011010011011101 ,
11
b1011010011011101 4
b100010000000110101 5
b1011010011011101 6
#1060000
0!
0#
b1011010011011101 -
b100010000000110101 0
01
#1065000
1!
1#
b1001100011100101 %
0&
b101101010100010010 (
b100010000000110101 )
0+
b1001100011100101 ,
11
02
b1001100011100101 4
b101101010100010010 5
b1001100011100101 6
#1070000
0!
0#
b1001100011100101 -
0.
b101101010100010010 0
01
#1075000
1!
1#
b111110011011101 %
b101101010100010010 )
b111110011011101 ,
11
b111110011011101 4
b111110011011101 6
#1080000
0!
0#
b111110011011101 -
01
#1085000
1!
1#
b110011110011000 %
b110011110011000 ,
11
b110011110011000 4
b110011110011000 6
#1090000
0!
0#
b110011110011000 -
01
#1095000
1!
1#
b101001000111010 %
b101001000111010 ,
11
b101001000111010 4
b101001000111010 6
#1100000
0!
0#
b101001000111010 -
01
#1105000
1!
1#
b11111110011110 %
b11111110011110 ,
11
b11111110011110 4
b11111110011110 6
#1110000
0!
0#
b11111110011110 -
01
#1115000
1!
1#
b11000011110100 %
b11000011110100 ,
11
b11000011110100 4
b11000011110100 6
#1120000
0!
0#
b11000011110100 -
01
#1125000
1!
1#
b10001011101101 %
b10001011101101 ,
11
b10001011101101 4
b10001011101101 6
#1130000
0!
0#
b10001011101101 -
01
#1135000
1!
1#
b1001111111000 %
b1001111111000 ,
11
b1001111111000 4
b1001111111000 6
#1140000
0!
0#
b1001111111000 -
01
#1145000
1!
1#
b110110101001 %
b110110101001 ,
11
b110110101001 4
b110110101001 6
#1150000
0!
0#
b110110101001 -
01
#1155000
1!
1#
b10000111010 %
b10000111010 ,
11
b10000111010 4
b10000111010 6
#1160000
0!
0#
b10000111010 -
01
#1165000
1!
1#
b110111000 %
1&
1+
b110111000 ,
11
12
b110111000 4
b110111000 6
#1170000
0!
0#
b110111000 -
1.
01
#1175000
1!
1#
b11101110 %
0&
b101101011011001010 (
0+
b11101110 ,
11
02
b11101110 4
b101101011011001010 5
b11101110 6
#1180000
0!
0#
b11101110 -
0.
b101101011011001010 0
01
#1185000
1!
1#
b1111110110110101 %
b101101011011001010 )
b1111110110110101 ,
11
b1111110110110101 4
b1111110110110101 6
#1190000
0!
0#
b1111110110110101 -
01
#1195000
1!
1#
b100000111 %
b100000111 ,
11
b100000111 4
b100000111 6
#1200000
0!
0#
b100000111 -
01
#1205000
1!
1#
b100010100111 %
1'
1*
b100010100111 ,
11
13
b100010100111 4
b100010100111 6
#1210000
0!
0#
b100010100111 -
1/
01
#1215000
1!
1#
b1000001000101 %
0'
b0 (
0*
b1000001000101 ,
11
03
b1000001000101 4
b0 5
b1000001000101 6
#1220000
0!
0#
b1000001000101 -
0/
b0 0
01
#1225000
1!
1#
b1100110000110 %
b0 )
b1100110000110 ,
11
b1100110000110 4
b1100110000110 6
#1230000
0!
0#
b1100110000110 -
01
#1235000
1!
1#
b10011011010100 %
1'
1*
b10011011010100 ,
11
13
b10011011010100 4
b10011011010100 6
#1240000
0!
0#
b10011011010100 -
1/
01
#1245000
1!
1#
b11000111100010 %
0'
0*
b11000111100010 ,
11
03
b11000111100010 4
b11000111100010 6
#1250000
0!
0#
b11000111100010 -
0/
01
#1255000
1!
1#
b100010011011101 %
1&
1+
b100010011011101 ,
11
12
b100010011011101 4
b100010011011101 6
#1260000
0!
0#
b100010011011101 -
1.
01
#1265000
1!
1#
b101011010011111 %
0&
b100010011011101 (
0+
b101011010011111 ,
11
02
b101011010011111 4
b100010011011101 5
b101011010011111 6
#1270000
0!
0#
b101011010011111 -
0.
b100010011011101 0
01
#1275000
1!
1#
b110110000111101 %
b100010011011101 )
b110110000111101 ,
11
b110110000111101 4
b110110000111101 6
#1280000
0!
0#
b110110000111101 -
01
#1285000
1!
1#
b1000010010100001 %
b1000010010100001 ,
11
b1000010010100001 4
b1000010010100001 6
#1290000
0!
0#
b1000010010100001 -
01
#1295000
1!
1#
b1010000111100000 %
b1010000111100000 ,
11
b1010000111100000 4
b1010000111100000 6
#1300000
0!
0#
b1010000111100000 -
01
#1305000
1!
1#
b1011111011011100 %
b1011111011011100 ,
11
b1011111011011100 4
b1011111011011100 6
#1310000
0!
0#
b1011111011011100 -
01
#1315000
1!
1#
b1101110111010011 %
1&
1+
b1101110111010011 ,
11
12
b1101110111010011 4
b1101110111010011 6
#1320000
0!
0#
b1101110111010011 -
1.
01
#1325000
1!
1#
b1111111110010100 %
0&
b10010001010110000 (
0+
b1111111110010100 ,
11
02
b1111111110010100 4
b10010001010110000 5
b1111111110010100 6
#1330000
0!
0#
b1111111110010100 -
0.
b10010001010110000 0
01
#1335000
1!
1#
b10001100101101 %
1&
b10010001010110000 )
1+
b10001100101101 ,
11
12
b10001100101101 4
b10001100101101 6
#1340000
0!
0#
b10001100101101 -
1.
01
#1345000
1!
1#
b100100110100000 %
0&
b10100010111011101 (
0+
b100100110100000 ,
11
02
b100100110100000 4
b10100010111011101 5
b100100110100000 6
#1350000
0!
0#
b100100110100000 -
0.
b10100010111011101 0
01
#1355000
1!
1#
b111000111001100 %
1&
b10100010111011101 )
1+
b111000111001100 ,
11
12
b111000111001100 4
b111000111001100 6
#1360000
0!
0#
b111000111001100 -
1.
01
#1365000
1!
1#
b1001110011001011 %
0&
b11011011110101001 (
0+
b1001110011001011 ,
11
02
b1001110011001011 4
b11011011110101001 5
b1001110011001011 6
#1370000
0!
0#
b1001110011001011 -
0.
b11011011110101001 0
01
#1375000
1!
1#
b1100011111100000 %
b11011011110101001 )
b1100011111100000 ,
11
b1100011111100000 4
b1100011111100000 6
#1380000
0!
0#
b1100011111100000 -
01
#1385000
1!
1#
b1111101010010101 %
b1111101010010101 ,
11
b1111101010010101 4
b1111101010010101 6
#1390000
0!
0#
b1111101010010101 -
01
#1395000
1!
1#
b10101001010101 %
1'
1*
b10101001010101 ,
11
13
b10101001010101 4
b10101001010101 6
#1400000
0!
0#
b10101001010101 -
1/
01
#1405000
1!
1#
b110000110111100 %
0'
b0 (
0*
b110000110111100 ,
11
03
b110000110111100 4
b0 5
b110000110111100 6
#1410000
0!
0#
b110000110111100 -
0/
b0 0
01
#1415000
1!
1#
b1001011111110010 %
b0 )
b1001011111110010 ,
11
b1001011111110010 4
b1001011111110010 6
#1420000
0!
0#
b1001011111110010 -
01
#1425000
1!
1#
b1101000100100110 %
1&
1+
b1101000100100110 ,
11
12
b1101000100100110 4
b1101000100100110 6
#1430000
0!
0#
b1101000100100110 -
1.
01
#1435000
1!
1#
b110100001011 %
b1101000100100110 (
b110100001011 ,
11
b110100001011 4
b1101000100100110 5
b110100001011 6
#1440000
0!
0#
b110100001011 -
b1101000100100110 0
01
#1445000
1!
1#
b100100011000100 %
0&
b1101111000110001 (
b1101000100100110 )
0+
b100100011000100 ,
11
02
b100100011000100 4
b1101111000110001 5
b100100011000100 6
#1450000
0!
0#
b100100011000100 -
0.
b1101111000110001 0
01
#1455000
1!
1#
b1000101101100010 %
b1101111000110001 )
b1000101101100010 ,
11
b1000101101100010 4
b1000101101100010 6
#1460000
0!
0#
b1000101101100010 -
01
#1465000
1!
1#
b1100110110101111 %
b1100110110101111 ,
11
b1100110110101111 4
b1100110110101111 6
#1470000
0!
0#
b1100110110101111 -
01
#1475000
1!
1#
b1000100010110 %
1'
1*
b1000100010110 ,
11
13
b1000100010110 4
b1000100010110 6
#1480000
0!
0#
b1000100010110 -
1/
01
#1485000
1!
1#
b101101101001000 %
1&
0'
b0 (
0*
1+
b101101101001000 ,
11
12
03
b101101101001000 4
b0 5
b101101101001000 6
#1490000
0!
0#
b101101101001000 -
1.
0/
b0 0
01
#1495000
1!
1#
b1010001000100000 %
b101101101001000 (
b0 )
b1010001000100000 ,
11
b1010001000100000 4
b101101101001000 5
b1010001000100000 6
#1500000
0!
0#
b1010001000100000 -
b101101101001000 0
01
#1505000
1!
1#
b1111000111000011 %
b1111110101101000 (
b101101101001000 )
b1111000111000011 ,
11
b1111000111000011 4
b1111110101101000 5
b1111000111000011 6
#1510000
0!
0#
b1111000111000011 -
b1111110101101000 0
01
#1515000
1!
1#
b11111110000101 %
0&
b11110111100101011 (
b1111110101101000 )
0+
b11111110000101 ,
11
02
b11111110000101 4
b11110111100101011 5
b11111110000101 6
#1520000
0!
0#
b11111110000101 -
0.
b11110111100101011 0
01
#1525000
1!
1#
b1001000000001000 %
b11110111100101011 )
b1001000000001000 ,
11
b1001000000001000 4
b1001000000001000 6
#1530000
0!
0#
b1001000000001000 -
01
#1535000
1!
1#
b1110001000110101 %
b1110001000110101 ,
11
b1110001000110101 4
b1110001000110101 6
#1540000
0!
0#
b1110001000110101 -
01
#1545000
1!
1#
b11101001010100 %
b11101001010100 ,
11
b11101001010100 4
b11101001010100 6
#1550000
0!
0#
b11101001010100 -
01
#1555000
1!
1#
b1001001000110110 %
b1001001000110110 ,
11
b1001001000110110 4
b1001001000110110 6
#1560000
0!
0#
b1001001000110110 -
01
#1565000
1!
1#
b1110110100010101 %
b1110110100010101 ,
11
b1110110100010101 4
b1110110100010101 6
#1570000
0!
0#
b1110110100010101 -
01
#1575000
1!
1#
b100101010110111 %
1&
1+
b100101010110111 ,
11
12
b100101010110111 4
b100101010110111 6
#1580000
0!
0#
b100101010110111 -
1.
01
#1585000
1!
1#
b1010100000000001 %
0&
b100011100111100010 (
0+
b1010100000000001 ,
11
02
b1010100000000001 4
b100011100111100010 5
b1010100000000001 6
#1590000
0!
0#
b1010100000000001 -
0.
b100011100111100010 0
01
#1595000
1!
1#
b101001101100 %
1&
b100011100111100010 )
1+
b101001101100 ,
11
12
b101001101100 4
b101001101100 6
#1600000
0!
0#
b101001101100 -
1.
01
#1605000
1!
1#
b110111110010101 %
0&
b100100010001001110 (
0+
b110111110010101 ,
11
02
b110111110010101 4
b100100010001001110 5
b110111110010101 6
#1610000
0!
0#
b110111110010101 -
0.
b100100010001001110 0
01
#1615000
1!
1#
b1101001010000110 %
b100100010001001110 )
b1101001010000110 ,
11
b1101001010000110 4
b1101001010000110 6
#1620000
0!
0#
b1101001010000110 -
01
#1625000
1!
1#
b11101101100101 %
b11101101100101 ,
11
b11101101100101 4
b11101101100101 6
#1630000
0!
0#
b11101101100101 -
01
#1635000
1!
1#
b1010011011101110 %
b1010011011101110 ,
11
b1010011011101110 4
b1010011011101110 6
#1640000
0!
0#
b1010011011101110 -
01
#1645000
1!
1#
b1011101010110 %
b1011101010110 ,
11
b1011101010110 4
b1011101010110 6
#1650000
0!
0#
b1011101010110 -
01
#1655000
1!
1#
b1000011010010001 %
b1000011010010001 ,
11
b1000011010010001 4
b1000011010010001 6
#1660000
0!
0#
b1000011010010001 -
01
#1665000
1!
1#
b1111011010110100 %
1&
1+
b1111011010110100 ,
11
12
b1111011010110100 4
b1111011010110100 6
#1670000
0!
0#
b1111011010110100 -
1.
01
#1675000
1!
1#
b110110011001111 %
0&
b110011101100000010 (
0+
b110110011001111 ,
11
02
b110110011001111 4
b110011101100000010 5
b110110011001111 6
