UVM_Tests/test.vcd
$date
   Sun Jan  8 13:34:21 2023
$end
$version
  2021.2
$end
$timescale
  1ps
$end
$scope module accum_tb_top $end
$var reg 1 ! clk $end
$var reg 1 " reset_n $end
$scope module accum_intf $end
$var wire 1 # clk $end
$var wire 1 $ reset_n $end
$var reg 32 % data [31:0] $end
$var reg 1 & enable $end
$var reg 1 ' clear $end
$var reg 32 ( accum [31:0] $end
$scope module DRV $end
$var wire 1 # clk $end
$var wire 1 $ reset_n $end
$upscope $end
$scope module RCV $end
$var wire 1 # clk $end
$var wire 1 $ reset_n $end
$upscope $end
$scope module DUT $end
$var reg 1 & enable $end
$var reg 1 ' clear $end
$var reg 32 % data [31:0] $end
$var wire 1 # clk $end
$var wire 1 $ reset_n $end
$var reg 32 ( accum [31:0] $end
$upscope $end
$scope module SV $end
$var reg 32 ( accum [31:0] $end
$var reg 1 & enable $end
$var reg 1 ' clear $end
$var reg 32 % data [31:0] $end
$var wire 1 # clk $end
$var wire 1 $ reset_n $end
$upscope $end
$scope module dr_cb $end
$var reg 32 ) accum [31:0] $end
$var reg 1 * clear $end
$var reg 1 + enable $end
$var reg 32 , data [31:0] $end
$upscope $end
$scope module rc_cb $end
$var reg 32 - data [31:0] $end
$var reg 1 . enable $end
$var reg 1 / clear $end
$var reg 32 0 accum [31:0] $end
$upscope $end
$upscope $end
$scope module dut $end
$var reg 32 1 result_o [31:0] $end
$var wire 1 2 clk $end
$var wire 1 3 clear_i $end
$var wire 1 4 en_i $end
$var wire 32 5 in_data_sext [31:0] $end
$scope module itf $end
$var reg 1 & enable $end
$var reg 1 ' clear $end
$var reg 32 % data [31:0] $end
$var wire 1 # clk $end
$var wire 1 $ reset_n $end
$var reg 32 ( accum [31:0] $end
$upscope $end
$scope module sva $end
$var wire 1 6 clk $end
$var wire 1 7 en_i $end
$var wire 1 8 clear_i $end
$var wire 32 9 data_i [31:0] $end
$var wire 32 : result_o [31:0] $end
$var reg 32 ; data_p [31:0] $end
$var reg 32 < result_p [31:0] $end
$scope module itf $end
$var reg 32 ( accum [31:0] $end
$var reg 1 & enable $end
$var reg 1 ' clear $end
$var reg 32 % data [31:0] $end
$var wire 1 # clk $end
$var wire 1 $ reset_n $end
$upscope $end
$upscope $end
$upscope $end
$upscope $end
$enddefinitions $end
#0
$dumpvars
0!
0"
0#
0$
bx %
x&
x'
bx (
bx )
0*
0+
b0 ,
bx -
x.
x/
bx 0
bx 1
02
x3
x4
bx 5
06
x7
x8
bx 9
bx :
bx ;
bx <
$end
#5000
1!
1#
12
16
#7000
b0 %
0&
0'
03
04
b0 5
07
08
b0 9
#10000
0!
0#
b0 -
0.
0/
02
06
#15000
1!
1#
12
16
#17000
b0 ;
#20000
0!
0#
02
06
#25000
1!
1#
12
16
#30000
0!
0#
02
06
#35000
1!
1#
12
16
#40000
0!
0#
02
06
#45000
1!
1#
1*
12
16
#47000
1'
13
18
#50000
0!
1"
0#
1$
1/
02
06
#55000
1!
1#
b0 (
0*
b0 1
12
16
b0 :
#57000
0'
03
08
#60000
0!
0#
0/
b0 0
02
06
#65000
1!
1#
b0 )
12
16
#67000
b0 <
#70000
0!
0#
02
06
#75000
1!
1#
12
16
#80000
0!
0#
02
06
#85000
1!
1#
12
16
#90000
0!
0#
02
06
#95000
1!
1#
12
16
#100000
0!
0#
02
06
#105000
1!
1#
12
16
#110000
0!
0#
02
06
#115000
1!
1#
1+
b110111010001110 ,
12
16
#117000
b110111010001110 %
1&
14
b110111010001110 5
17
b110111010001110 9
#120000
0!
0#
b110111010001110 -
1.
02
06
#125000
1!
1#
b110111010001110 (
0+
b111000001000101 ,
b110111010001110 1
12
16
b110111010001110 :
#127000
b111000001000101 %
0&
04
b111000001000101 5
07
b111000001000101 9
b110111010001110 ;
#130000
0!
0#
b111000001000101 -
0.
b110111010001110 0
02
06
#135000
1!
1#
b110111010001110 )
b111010011100001 ,
12
16
#137000
b111010011100001 %
b111010011100001 5
b111010011100001 9
b111000001000101 ;
b110111010001110 <
#140000
0!
0#
b111010011100001 -
02
06
#145000
1!
1#
b111110001101000 ,
12
16
#147000
b111110001101000 %
b111110001101000 5
b111110001101000 9
b111010011100001 ;
#150000
0!
0#
b111110001101000 -
02
06
#155000
1!
1#
1+
b1000010110100110 ,
12
16
#157000
b1000010110100110 %
1&
14
b1000010110100110 5
17
b1000010110100110 9
b111110001101000 ;
#160000
0!
0#
b1000010110100110 -
1.
02
06
#165000
1!
1#
b1111010000110100 (
0+
b1000111011100011 ,
b1111010000110100 1
12
16
b1111010000110100 :
#167000
b1000111011100011 %
0&
04
b1000111011100011 5
07
b1000111011100011 9
b1000010110100110 ;
#170000
0!
0#
b1000111011100011 -
0.
b1111010000110100 0
02
06
#175000
1!
1#
b1111010000110100 )
b1010000000001101 ,
12
16
#177000
b1010000000001101 %
b1010000000001101 5
b1010000000001101 9
b1000111011100011 ;
b1111010000110100 <
#180000
0!
0#
b1010000000001101 -
02
06
#185000
1!
1#
b1011000011010010 ,
12
16
#187000
b1011000011010010 %
b1011000011010010 5
b1011000011010010 9
b1010000000001101 ;
#190000
0!
0#
b1011000011010010 -
02
06
#195000
1!
1#
b1100000001111001 ,
12
16
#197000
b1100000001111001 %
b1100000001111001 5
b1100000001111001 9
b1011000011010010 ;
#200000
0!
0#
b1100000001111001 -
02
06
#205000
1!
1#
1+
b1101011000000000 ,
12
16
#207000
b1101011000000000 %
1&
14
b1101011000000000 5
17
b1101011000000000 9
b1100000001111001 ;
#210000
0!
0#
b1101011000000000 -
1.
02
06
#215000
1!
1#
b11100101000110100 (
0+
b1110111100101111 ,
b11100101000110100 1
12
16
b11100101000110100 :
#217000
b1110111100101111 %
0&
04
b1110111100101111 5
07
b1110111100101111 9
b1101011000000000 ;
#220000
0!
0#
b1110111100101111 -
0.
b11100101000110100 0
02
06
#225000
1!
1#
b11100101000110100 )
1+
b11110110110 ,
12
16
#227000
b11110110110 %
1&
14
b11110110110 5
17
b11110110110 9
b1110111100101111 ;
b11100101000110100 <
#230000
0!
0#
b11110110110 -
1.
02
06
#235000
1!
1#
b11101000111101010 (
b10011101110001 ,
b11101000111101010 1
12
16
b11101000111101010 :
#237000
b10011101110001 %
b10011101110001 5
b10011101110001 9
b11110110110 ;
#240000
0!
0#
b10011101110001 -
b11101000111101010 0
02
06
#245000
1!
1#
b11111100101011011 (
b11101000111101010 )
0+
b100010101100000 ,
b11111100101011011 1
12
16
b11111100101011011 :
#247000
b100010101100000 %
0&
04
b100010101100000 5
07
b100010101100000 9
b10011101110001 ;
b11101000111101010 <
#250000
0!
0#
b100010101100000 -
0.
b11111100101011011 0
02
06
#255000
1!
1#
b11111100101011011 )
1+
b110011100100001 ,
12
16
#257000
b110011100100001 %
1&
14
b110011100100001 5
17
b110011100100001 9
b100010101100000 ;
b11111100101011011 <
#260000
0!
0#
b110011100100001 -
1.
02
06
#265000
1!
1#
b100110000001111100 (
0+
b1000101010100111 ,
b100110000001111100 1
12
16
b100110000001111100 :
#267000
b1000101010100111 %
0&
04
b1000101010100111 5
07
b1000101010100111 9
b110011100100001 ;
#270000
0!
0#
b1000101010100111 -
0.
b100110000001111100 0
02
06
#275000
1!
1#
b100110000001111100 )
b1011000011101001 ,
12
16
#277000
b1011000011101001 %
b1011000011101001 5
b1011000011101001 9
b1000101010100111 ;
b100110000001111100 <
#280000
0!
0#
b1011000011101001 -
02
06
#285000
1!
1#
b1101100011111101 ,
12
16
#287000
b1101100011111101 %
b1101100011111101 5
b1101100011111101 9
b1011000011101001 ;
#290000
0!
0#
b1101100011111101 -
02
06
#295000
1!
1#
b10001001001 ,
12
16
#297000
b10001001001 %
b10001001001 5
b10001001001 9
b1101100011111101 ;
#300000
0!
0#
b10001001001 -
02
06
#305000
1!
1#
b11000100000000 ,
12
16
#307000
b11000100000000 %
b11000100000000 5
b11000100000000 9
b10001001001 ;
#310000
0!
0#
b11000100000000 -
02
06
#315000
1!
1#
b101110110110010 ,
12
16
#317000
b101110110110010 %
b101110110110010 5
b101110110110010 9
b11000100000000 ;
#320000
0!
0#
b101110110110010 -
02
06
#325000
1!
1#
b1001001000100000 ,
12
16
#327000
b1001001000100000 %
b1001001000100000 5
b1001001000100000 9
b101110110110010 ;
#330000
0!
0#
b1001001000100000 -
02
06
#335000
1!
1#
b1100001101101110 ,
12
16
#337000
b1100001101101110 %
b1100001101101110 5
b1100001101101110 9
b1001001000100000 ;
#340000
0!
0#
b1100001101101110 -
02
06
#345000
1!
1#
b1111101110010010 ,
12
16
#347000
b1111101110010010 %
b1111101110010010 5
b1111101110010010 9
b1100001101101110 ;
#350000
0!
0#
b1111101110010010 -
02
06
#355000
1!
1#
1*
b11001011001101 ,
12
16
#357000
b11001011001101 %
1'
13
b11001011001101 5
18
b11001011001101 9
b1111101110010010 ;
#360000
0!
0#
b11001011001101 -
1/
02
06
#365000
1!
1#
b0 (
0*
1+
b111000010010001 ,
b0 1
12
16
b0 :
#367000
b111000010010001 %
1&
0'
03
14
b111000010010001 5
17
08
b111000010010001 9
b11001011001101 ;
#370000
0!
0#
b111000010010001 -
1.
0/
b0 0
02
06
#375000
1!
1#
b111000010010001 (
b0 )
0+
b1010111000111001 ,
b111000010010001 1
12
16
b111000010010001 :
#377000
b1010111000111001 %
0&
04
b1010111000111001 5
07
b1010111000111001 9
b111000010010001 ;
b0 <
#380000
0!
0#
b1010111000111001 -
0.
b111000010010001 0
02
06
#385000
1!
1#
b111000010010001 )
1+
b1110111111010000 ,
12
16
#387000
b1110111111010000 %
1&
14
b1110111111010000 5
17
b1110111111010000 9
b1010111000111001 ;
b111000010010001 <
#390000
0!
0#
b1110111111010000 -
1.
02
06
#395000
1!
1#
b10110000001100001 (
b10111100100001 ,
b10110000001100001 1
12
16
b10110000001100001 :
#397000
b10111100100001 %
b10111100100001 5
b10111100100001 9
b1110111111010000 ;
#400000
0!
0#
b10111100100001 -
b10110000001100001 0
02
06
#405000
1!
1#
b11000111110000010 (
b10110000001100001 )
0+
b111001100110100 ,
b11000111110000010 1
12
16
b11000111110000010 :
#407000
b111001100110100 %
0&
04
b111001100110100 5
07
b111001100110100 9
b10111100100001 ;
b10110000001100001 <
#410000
0!
0#
b111001100110100 -
0.
b11000111110000010 0
02
06
#415000
1!
1#
b11000111110000010 )
1+
b1011110100110111 ,
12
16
#417000
b1011110100110111 %
1&
14
b1011110100110111 5
17
b1011110100110111 9
b111001100110100 ;
b11000111110000010 <
#420000
0!
0#
b1011110100110111 -
1.
02
06
#425000
1!
1#
b100100110010111001 (
1*
0+
b10000111100 ,
b100100110010111001 1
12
16
b100100110010111001 :
#427000
b10000111100 %
0&
1'
13
04
b10000111100 5
07
18
b10000111100 9
b1011110100110111 ;
#430000
0!
0#
b10000111100 -
0.
1/
b100100110010111001 0
02
06
#435000
1!
1#
b0 (
b100100110010111001 )
b101001000001100 ,
b0 1
12
16
b0 :
#437000
b101001000001100 %
b101001000001100 5
b101001000001100 9
b10000111100 ;
b100100110010111001 <
#440000
0!
0#
b101001000001100 -
b0 0
02
06
#445000
1!
1#
b0 )
0*
b1010000101011101 ,
12
16
#447000
b1010000101011101 %
0'
03
b1010000101011101 5
08
b1010000101011101 9
b101001000001100 ;
b0 <
#450000
0!
0#
b1010000101011101 -
0/
02
06
#455000
1!
1#
b1111001010010010 ,
12
16
#457000
b1111001010010010 %
b1111001010010010 5
b1111001010010010 9
b1010000101011101 ;
#460000
0!
0#
b1111001010010010 -
02
06
#465000
1!
1#
1+
b100010011111001 ,
12
16
#467000
b100010011111001 %
1&
14
b100010011111001 5
17
b100010011111001 9
b1111001010010010 ;
#470000
0!
0#
b100010011111001 -
1.
02
06
#475000
1!
1#
b100010011111001 (
b1001011111110001 ,
b100010011111001 1
12
16
b100010011111001 :
#477000
b1001011111110001 %
b1001011111110001 5
b1001011111110001 9
b100010011111001 ;
#480000
0!
0#
b1001011111110001 -
b100010011111001 0
02
06
#485000
1!
1#
b1101110011101010 (
b100010011111001 )
b1111000111010011 ,
b1101110011101010 1
12
16
b1101110011101010 :
#487000
b1111000111010011 %
b1111000111010011 5
b1111000111010011 9
b1001011111110001 ;
b100010011111001 <
#490000
0!
0#
b1111000111010011 -
b1101110011101010 0
02
06
#495000
1!
1#
b11100111010111101 (
b1101110011101010 )
0+
b100101110001101 ,
b11100111010111101 1
12
16
b11100111010111101 :
#497000
b100101110001101 %
0&
04
b100101110001101 5
07
b100101110001101 9
b1111000111010011 ;
b1101110011101010 <
#500000
0!
0#
b100101110001101 -
0.
b11100111010111101 0
02
06
#505000
1!
1#
b11100111010111101 )
1+
b1010100011111111 ,
12
16
#507000
b1010100011111111 %
1&
14
b1010100011111111 5
17
b1010100011111111 9
b100101110001101 ;
b11100111010111101 <
#510000
0!
0#
b1010100011111111 -
1.
02
06
#515000
1!
1#
b100111011110111100 (
1*
0+
b11101101011 ,
b100111011110111100 1
12
16
b100111011110111100 :
#517000
b11101101011 %
0&
1'
13
04
b11101101011 5
07
18
b11101101011 9
b1010100011111111 ;
#520000
0!
0#
b11101101011 -
0.
1/
b100111011110111100 0
02
06
#525000
1!
1#
b0 (
b100111011110111100 )
0*
b110011001110101 ,
b0 1
12
16
b0 :
#527000
b110011001110101 %
0'
03
b110011001110101 5
08
b110011001110101 9
b11101101011 ;
b100111011110111100 <
#530000
0!
0#
b110011001110101 -
0/
b0 0
02
06
#535000
1!
1#
b0 )
b1100110110101011 ,
12
16
#537000
b1100110110101011 %
b1100110110101011 5
b1100110110101011 9
b110011001110101 ;
b0 <
#540000
0!
0#
b1100110110101011 -
02
06
#545000
1!
1#
b11001101110111 ,
12
16
#547000
b11001101110111 %
b11001101110111 5
b11001101110111 9
b1100110110101011 ;
#550000
0!
0#
b11001101110111 -
02
06
#555000
1!
1#
b1001110000101100 ,
12
16
#557000
b1001110000101100 %
b1001110000101100 5
b1001110000101100 9
b11001101110111 ;
#560000
0!
0#
b1001110000101100 -
02
06
#565000
1!
1#
b1110111110 ,
12
16
#567000
b1110111110 %
b1110111110 5
b1110111110 9
b1001110000101100 ;
#570000
0!
0#
b1110111110 -
02
06
#575000
1!
1#
1*
b111001100100111 ,
12
16
#577000
b111001100100111 %
1'
13
b111001100100111 5
18
b111001100100111 9
b1110111110 ;
#580000
0!
0#
b111001100100111 -
1/
02
06
#585000
1!
1#
0*
1+
b1110001000111001 ,
12
16
#587000
b1110001000111001 %
1&
0'
03
14
b1110001000111001 5
17
08
b1110001000111001 9
b111001100100111 ;
#590000
0!
0#
b1110001000111001 -
1.
0/
02
06
#595000
1!
1#
b1110001000111001 (
0+
b101010101100000 ,
b1110001000111001 1
12
16
b1110001000111001 :
#597000
b101010101100000 %
0&
04
b101010101100000 5
07
b101010101100000 9
b1110001000111001 ;
#600000
0!
0#
b101010101100000 -
0.
b1110001000111001 0
02
06
#605000
1!
1#
b1110001000111001 )
b1100011000010111 ,
12
16
#607000
b1100011000010111 %
b1100011000010111 5
b1100011000010111 9
b101010101100000 ;
b1110001000111001 <
#610000
0!
0#
b1100011000010111 -
02
06
#615000
1!
1#
1+
b11111011101111 ,
12
16
#617000
b11111011101111 %
1&
14
b11111011101111 5
17
b11111011101111 9
b1100011000010111 ;
#620000
0!
0#
b11111011101111 -
1.
02
06
#625000
1!
1#
b10010000100101000 (
0+
b1011011001011001 ,
b10010000100101000 1
12
16
b10010000100101000 :
#627000
b1011011001011001 %
0&
04
b1011011001011001 5
07
b1011011001011001 9
b11111011101111 ;
#630000
0!
0#
b1011011001011001 -
0.
b10010000100101000 0
02
06
#635000
1!
1#
b10010000100101000 )
b11010011100110 ,
12
16
#637000
b11010011100110 %
b11010011100110 5
b11010011100110 9
b1011011001011001 ;
b10010000100101000 <
#640000
0!
0#
b11010011100110 -
02
06
#645000
1!
1#
b1011001011101100 ,
12
16
#647000
b1011001011101100 %
b1011001011101100 5
b1011001011101100 9
b11010011100110 ;
#650000
0!
0#
b1011001011101100 -
02
06
#655000
1!
1#
b11001000011100 ,
12
16
#657000
b11001000011100 %
b11001000011100 5
b11001000011100 9
b1011001011101100 ;
#660000
0!
0#
b11001000011100 -
02
06
#665000
1!
1#
1*
b1011010100000010 ,
12
16
#667000
b1011010100000010 %
1'
13
b1011010100000010 5
18
b1011010100000010 9
b11001000011100 ;
#670000
0!
0#
b1011010100000010 -
1/
02
06
#675000
1!
1#
b0 (
b11101011001101 ,
b0 1
12
16
b0 :
#677000
b11101011001101 %
b11101011001101 5
b11101011001101 9
b1011010100000010 ;
#680000
0!
0#
b11101011001101 -
b0 0
02
06
#685000
1!
1#
b0 )
0*
b1100000100011110 ,
12
16
#687000
b1100000100011110 %
0'
03
b1100000100011110 5
08
b1100000100011110 9
b11101011001101 ;
b0 <
#690000
0!
0#
b1100000100011110 -
0/
02
06
#695000
1!
1#
b100101110010011 ,
12
16
#697000
b100101110010011 %
b100101110010011 5
b100101110010011 9
b1100000100011110 ;
#700000
0!
0#
b100101110010011 -
02
06
#705000
1!
1#
b1101010011000110 ,
12
16
#707000
b1101010011000110 %
b1101010011000110 5
b1101010011000110 9
b100101110010011 ;
#710000
0!
0#
b1101010011000110 -
02
06
#715000
1!
1#
1*
b110001100000001 ,
12
16
#717000
b110001100000001 %
1'
13
b110001100000001 5
18
b110001100000001 9
b1101010011000110 ;
#720000
0!
0#
b110001100000001 -
1/
02
06
#725000
1!
1#
b1111001110111010 ,
12
16
#727000
b1111001110111010 %
b1111001110111010 5
b1111001110111010 9
b110001100000001 ;
#730000
0!
0#
b1111001110111010 -
02
06
#735000
1!
1#
0*
1+
b1000100001111001 ,
12
16
#737000
b1000100001111001 %
1&
0'
03
14
b1000100001111001 5
17
08
b1000100001111001 9
b1111001110111010 ;
#740000
0!
0#
b1000100001111001 -
1.
0/
02
06
#745000
1!
1#
b1000100001111001 (
1*
0+
b1111100001010 ,
b1000100001111001 1
12
16
b1000100001111001 :
#747000
b1111100001010 %
0&
1'
13
04
b1111100001010 5
07
18
b1111100001010 9
b1000100001111001 ;
#750000
0!
0#
b1111100001010 -
0.
1/
b1000100001111001 0
02
06
#755000
1!
1#
b0 (
b1000100001111001 )
0*
b1011011110001110 ,
b0 1
12
16
b0 :
#757000
b1011011110001110 %
0'
03
b1011011110001110 5
08
b1011011110001110 9
b1111100001010 ;
b1000100001111001 <
#760000
0!
0#
b1011011110001110 -
0/
b0 0
02
06
#765000
1!
1#
b0 )
1+
b101000110001110 ,
12
16
#767000
b101000110001110 %
1&
14
b101000110001110 5
17
b101000110001110 9
b1011011110001110 ;
b0 <
#770000
0!
0#
b101000110001110 -
1.
02
06
#775000
1!
1#
b101000110001110 (
0+
b1110101010110111 ,
b101000110001110 1
12
16
b101000110001110 :
#777000
b1110101010110111 %
0&
04
b1110101010110111 5
07
b1110101010110111 9
b101000110001110 ;
#780000
0!
0#
b1110101010110111 -
0.
b101000110001110 0
02
06
#785000
1!
1#
b101000110001110 )
b1000101001111101 ,
12
16
#787000
b1000101001111101 %
b1000101001111101 5
b1000101001111101 9
b1110101010110111 ;
b101000110001110 <
#790000
0!
0#
b1000101001111101 -
02
06
#795000
1!
1#
1*
b10111001011110 ,
12
16
#797000
b10111001011110 %
1'
13
b10111001011110 5
18
b10111001011110 9
b1000101001111101 ;
#800000
0!
0#
b10111001011110 -
1/
02
06
#805000
1!
1#
b0 (
0*
b1101000111000011 ,
b0 1
12
16
b0 :
#807000
b1101000111000011 %
0'
03
b1101000111000011 5
08
b1101000111000011 9
b10111001011110 ;
#810000
0!
0#
b1101000111000011 -
0/
b0 0
02
06
#815000
1!
1#
b0 )
b111010101000000 ,
12
16
#817000
b111010101000000 %
b111010101000000 5
b111010101000000 9
b1101000111000011 ;
b0 <
#820000
0!
0#
b111010101000000 -
02
06
#825000
1!
1#
b1111001011011 ,
12
16
#827000
b1111001011011 %
b1111001011011 5
b1111001011011 9
b111010101000000 ;
#830000
0!
0#
b1111001011011 -
02
06
#835000
1!
1#
b1100101110001010 ,
12
16
#837000
b1100101110001010 %
b1100101110001010 5
b1100101110001010 9
b1111001011011 ;
#840000
0!
0#
b1100101110001010 -
02
06
#845000
1!
1#
b111100101011010 ,
12
16
#847000
b111100101011010 %
b111100101011010 5
b111100101011010 9
b1100101110001010 ;
#850000
0!
0#
b111100101011010 -
02
06
#855000
1!
1#
1*
b10100100010110 ,
12
16
#857000
b10100100010110 %
1'
13
b10100100010110 5
18
b10100100010110 9
b111100101011010 ;
#860000
0!
0#
b10100100010110 -
1/
02
06
#865000
1!
1#
0*
b1101011110010000 ,
12
16
#867000
b1101011110010000 %
0'
03
b1101011110010000 5
08
b1101011110010000 9
b10100100010110 ;
#870000
0!
0#
b1101011110010000 -
0/
02
06
#875000
1!
1#
b1000111100000001 ,
12
16
#877000
b1000111100000001 %
b1000111100000001 5
b1000111100000001 9
b1101011110010000 ;
#880000
0!
0#
b1000111100000001 -
02
06
#885000
1!
1#
b100011001010101 ,
12
16
#887000
b100011001010101 %
b100011001010101 5
b100011001010101 9
b1000111100000001 ;
#890000
0!
0#
b100011001010101 -
02
06
#895000
1!
1#
b1111110000111100 ,
12
16
#897000
b1111110000111100 %
b1111110000111100 5
b1111110000111100 9
b100011001010101 ;
#900000
0!
0#
b1111110000111100 -
02
06
#905000
1!
1#
b1011100100110100 ,
12
16
#907000
b1011100100110100 %
b1011100100110100 5
b1011100100110100 9
b1111110000111100 ;
#910000
0!
0#
b1011100100110100 -
02
06
#915000
1!
1#
b111100011110011 ,
12
16
#917000
b111100011110011 %
b111100011110011 5
b111100011110011 9
b1011100100110100 ;
#920000
0!
0#
b111100011110011 -
02
06
#925000
1!
1#
b11100010000001 ,
12
16
#927000
b11100010000001 %
b11100010000001 5
b11100010000001 9
b111100011110011 ;
#930000
0!
0#
b11100010000001 -
02
06
#935000
1!
1#
b1111101111010101 ,
12
16
#937000
b1111101111010101 %
b1111101111010101 5
b1111101111010101 9
b11100010000001 ;
#940000
0!
0#
b1111101111010101 -
02
06
#945000
1!
1#
1+
b1011111100011000 ,
12
16
#947000
b1011111100011000 %
1&
14
b1011111100011000 5
17
b1011111100011000 9
b1111101111010101 ;
#950000
0!
0#
b1011111100011000 -
1.
02
06
#955000
1!
1#
b1011111100011000 (
0+
b1000011100111111 ,
b1011111100011000 1
12
16
b1011111100011000 :
#957000
b1000011100111111 %
0&
04
b1000011100111111 5
07
b1000011100111111 9
b1011111100011000 ;
#960000
0!
0#
b1000011100111111 -
0.
b1011111100011000 0
02
06
#965000
1!
1#
b1011111100011000 )
b100111100100101 ,
12
16
#967000
b100111100100101 %
b100111100100101 5
b100111100100101 9
b1000011100111111 ;
b1011111100011000 <
#970000
0!
0#
b100111100100101 -
02
06
#975000
1!
1#
b1110111010111 ,
12
16
#977000
b1110111010111 %
b1110111010111 5
b1110111010111 9
b100111100100101 ;
#980000
0!
0#
b1110111010111 -
02
06
#985000
1!
1#
1*
b1110110001001001 ,
12
16
#987000
b1110110001001001 %
1'
13
b1110110001001001 5
18
b1110110001001001 9
b1110111010111 ;
#990000
0!
0#
b1110110001001001 -
1/
02
06
#995000
1!
1#
b0 (
0*
1+
b1011110011001000 ,
b0 1
12
16
b0 :
#997000
b1011110011001000 %
1&
0'
03
14
b1011110011001000 5
17
08
b1011110011001000 9
b1110110001001001 ;
#1000000
0!
0#
b1011110011001000 -
1.
0/
b0 0
02
06
#1005000
1!
1#
b1011110011001000 (
b0 )
b1000111111100101 ,
b1011110011001000 1
12
16
b1011110011001000 :
#1007000
b1000111111100101 %
b1000111111100101 5
b1000111111100101 9
b1011110011001000 ;
b0 <
#1010000
0!
0#
b1000111111100101 -
b1011110011001000 0
02
06
#1015000
1!
1#
b10100110010101101 (
b1011110011001000 )
0+
b110010100010111 ,
b10100110010101101 1
12
16
b10100110010101101 :
#1017000
b110010100010111 %
0&
04
b110010100010111 5
07
b110010100010111 9
b1000111111100101 ;
b1011110011001000 <
#1020000
0!
0#
b110010100010111 -
0.
b10100110010101101 0
02
06
#1025000
1!
1#
b10100110010101101 )
b11111000101010 ,
12
16
#1027000
b11111000101010 %
b11111000101010 5
b11111000101010 9
b110010100010111 ;
b10100110010101101 <
#1030000
0!
0#
b11111000101010 -
02
06
#1035000
1!
1#
b1100011001110 ,
12
16
#1037000
b1100011001110 %
b1100011001110 5
b1100011001110 9
b11111000101010 ;
#1040000
0!
0#
b1100011001110 -
02
06
#1045000
1!
1#
b1111001000100011 ,
12
16
#1047000
b1111001000100011 %
b1111001000100011 5
b1111001000100011 9
b1100011001110 ;
#1050000
0!
0#
b1111001000100011 -
02
06
#1055000
1!
1#
1+
b1101001110001000 ,
12
16
#1057000
b1101001110001000 %
1&
14
b1101001110001000 5
17
b1101001110001000 9
b1111001000100011 ;
#1060000
0!
0#
b1101001110001000 -
1.
02
06
#1065000
1!
1#
b100010000000110101 (
b1011010011011101 ,
b100010000000110101 1
12
16
b100010000000110101 :
#1067000
b1011010011011101 %
b1011010011011101 5
b1011010011011101 9
b1101001110001000 ;
#1070000
0!
0#
b1011010011011101 -
b100010000000110101 0
02
06
#1075000
1!
1#
b101101010100010010 (
b100010000000110101 )
0+
b1001100011100101 ,
b101101010100010010 1
12
16
b101101010100010010 :
#1077000
b1001100011100101 %
0&
04
b1001100011100101 5
07
b1001100011100101 9
b1011010011011101 ;
b100010000000110101 <
#1080000
0!
0#
b1001100011100101 -
0.
b101101010100010010 0
02
06
#1085000
1!
1#
b101101010100010010 )
b111110011011101 ,
12
16
#1087000
b111110011011101 %
b111110011011101 5
b111110011011101 9
b1001100011100101 ;
b101101010100010010 <
#1090000
0!
0#
b111110011011101 -
02
06
#1095000
1!
1#
b110011110011000 ,
12
16
#1097000
b110011110011000 %
b110011110011000 5
b110011110011000 9
b111110011011101 ;
#1100000
0!
0#
b110011110011000 -
02
06
#1105000
1!
1#
b101001000111010 ,
12
16
#1107000
b101001000111010 %
b101001000111010 5
b101001000111010 9
b110011110011000 ;
#1110000
0!
0#
b101001000111010 -
02
06
#1115000
1!
1#
b11111110011110 ,
12
16
#1117000
b11111110011110 %
b11111110011110 5
b11111110011110 9
b101001000111010 ;
#1120000
0!
0#
b11111110011110 -
02
06
#1125000
1!
1#
b11000011110100 ,
12
16
#1127000
b11000011110100 %
b11000011110100 5
b11000011110100 9
b11111110011110 ;
#1130000
0!
0#
b11000011110100 -
02
06
#1135000
1!
1#
b10001011101101 ,
12
16
#1137000
b10001011101101 %
b10001011101101 5
b10001011101101 9
b11000011110100 ;
#1140000
0!
0#
b10001011101101 -
02
06
#1145000
1!
1#
b1001111111000 ,
12
16
#1147000
b1001111111000 %
b1001111111000 5
b1001111111000 9
b10001011101101 ;
#1150000
0!
0#
b1001111111000 -
02
06
#1155000
1!
1#
b110110101001 ,
12
16
#1157000
b110110101001 %
b110110101001 5
b110110101001 9
b1001111111000 ;
#1160000
0!
0#
b110110101001 -
02
06
#1165000
1!
1#
b10000111010 ,
12
16
#1167000
b10000111010 %
b10000111010 5
b10000111010 9
b110110101001 ;
#1170000
0!
0#
b10000111010 -
02
06
#1175000
1!
1#
1+
b110111000 ,
12
16
#1177000
b110111000 %
1&
14
b110111000 5
17
b110111000 9
b10000111010 ;
#1180000
0!
0#
b110111000 -
1.
02
06
#1185000
1!
1#
b101101011011001010 (
0+
b11101110 ,
b101101011011001010 1
12
16
b101101011011001010 :
#1187000
b11101110 %
0&
04
b11101110 5
07
b11101110 9
b110111000 ;
#1190000
0!
0#
b11101110 -
0.
b101101011011001010 0
02
06
#1195000
1!
1#
b101101011011001010 )
b1111110110110101 ,
12
16
#1197000
b1111110110110101 %
b1111110110110101 5
b1111110110110101 9
b11101110 ;
b101101011011001010 <
#1200000
0!
0#
b1111110110110101 -
02
06
#1205000
1!
1#
b100000111 ,
12
16
#1207000
b100000111 %
b100000111 5
b100000111 9
b1111110110110101 ;
#1210000
0!
0#
b100000111 -
02
06
#1215000
1!
1#
1*
b100010100111 ,
12
16
#1217000
b100010100111 %
1'
13
b100010100111 5
18
b100010100111 9
b100000111 ;
#1220000
0!
0#
b100010100111 -
1/
02
06
#1225000
1!
1#
b0 (
0*
b1000001000101 ,
b0 1
12
16
b0 :
#1227000
b1000001000101 %
0'
03
b1000001000101 5
08
b1000001000101 9
b100010100111 ;
#1230000
0!
0#
b1000001000101 -
0/
b0 0
02
06
#1235000
1!
1#
b0 )
b1100110000110 ,
12
16
#1237000
b1100110000110 %
b1100110000110 5
b1100110000110 9
b1000001000101 ;
b0 <
#1240000
0!
0#
b1100110000110 -
02
06
#1245000
1!
1#
1*
b10011011010100 ,
12
16
#1247000
b10011011010100 %
1'
13
b10011011010100 5
18
b10011011010100 9
b1100110000110 ;
#1250000
0!
0#
b10011011010100 -
1/
02
06
#1255000
1!
1#
0*
b11000111100010 ,
12
16
#1257000
b11000111100010 %
0'
03
b11000111100010 5
08
b11000111100010 9
b10011011010100 ;
#1260000
0!
0#
b11000111100010 -
0/
02
06
#1265000
1!
1#
1+
b100010011011101 ,
12
16
#1267000
b100010011011101 %
1&
14
b100010011011101 5
17
b100010011011101 9
b11000111100010 ;
#1270000
0!
0#
b100010011011101 -
1.
02
06
#1275000
1!
1#
b100010011011101 (
0+
b101011010011111 ,
b100010011011101 1
12
16
b100010011011101 :
#1277000
b101011010011111 %
0&
04
b101011010011111 5
07
b101011010011111 9
b100010011011101 ;
#1280000
0!
0#
b101011010011111 -
0.
b100010011011101 0
02
06
#1285000
1!
1#
b100010011011101 )
b110110000111101 ,
12
16
#1287000
b110110000111101 %
b110110000111101 5
b110110000111101 9
b101011010011111 ;
b100010011011101 <
#1290000
0!
0#
b110110000111101 -
02
06
#1295000
1!
1#
b1000010010100001 ,
12
16
#1297000
b1000010010100001 %
b1000010010100001 5
b1000010010100001 9
b110110000111101 ;
